%YAML 1.1
%TAG !u! tag:unity3d.com,2011:
--- !u!114 &11400000
MonoBehaviour:
  m_ObjectHideFlags: 0
  m_CorrespondingSourceObject: {fileID: 0}
  m_PrefabInstance: {fileID: 0}
  m_PrefabAsset: {fileID: 0}
  m_GameObject: {fileID: 0}
  m_Enabled: 1
  m_EditorHideFlags: 0
  m_Script: {fileID: 11500000, guid: 2111741a6e254c545abf374b49dc287f, type: 3}
  m_Name: Armor 50%
  m_EditorClassIdentifier: 
  info: Add 1 Armor
  Icon: {fileID: 21300000, guid: 40bac6161648b435ebb91acc7e3b9f95, type: 3}
  Frame: {fileID: 21300000, guid: b01240610c3ae48eabbf419977065f1d, type: 3}
  ID: 2
  price: 5000
  multiplier: 1
