%YAML 1.1
%TAG !u! tag:unity3d.com,2011:
--- !u!114 &11400000
MonoBehaviour:
  m_ObjectHideFlags: 0
  m_CorrespondingSourceObject: {fileID: 0}
  m_PrefabInstance: {fileID: 0}
  m_PrefabAsset: {fileID: 0}
  m_GameObject: {fileID: 0}
  m_Enabled: 1
  m_EditorHideFlags: 0
  m_Script: {fileID: 11500000, guid: cafedd8f162c49b43ad38900633a6a40, type: 3}
  m_Name: Attack
  m_EditorClassIdentifier: 
  info: Add 50% attack
  name: Ultimate Attack Magics!
  Icon: {fileID: 21300000, guid: c9250edf4111a480399f5e39edc635f7, type: 3}
  Frame: {fileID: 21300000, guid: d2b5b74e034bb4321ba792a6e4f81e27, type: 3}
  ID: 1
  multiplier: 1.5
