%YAML 1.1
%TAG !u! tag:unity3d.com,2011:
--- !u!29 &1
OcclusionCullingSettings:
  m_ObjectHideFlags: 0
  serializedVersion: 2
  m_OcclusionBakeSettings:
    smallestOccluder: 5
    smallestHole: 0.25
    backfaceThreshold: 100
  m_SceneGUID: 00000000000000000000000000000000
  m_OcclusionCullingData: {fileID: 0}
--- !u!104 &2
RenderSettings:
  m_ObjectHideFlags: 0
  serializedVersion: 9
  m_Fog: 0
  m_FogColor: {r: 0.5, g: 0.5, b: 0.5, a: 1}
  m_FogMode: 3
  m_FogDensity: 0.01
  m_LinearFogStart: 0
  m_LinearFogEnd: 300
  m_AmbientSkyColor: {r: 0.5735294, g: 0.5735294, b: 0.5735294, a: 1}
  m_AmbientEquatorColor: {r: 0.114, g: 0.125, b: 0.133, a: 1}
  m_AmbientGroundColor: {r: 0.047, g: 0.043, b: 0.035, a: 1}
  m_AmbientIntensity: 1
  m_AmbientMode: 3
  m_SubtractiveShadowColor: {r: 0.42, g: 0.478, b: 0.627, a: 1}
  m_SkyboxMaterial: {fileID: 10304, guid: 0000000000000000f000000000000000, type: 0}
  m_HaloStrength: 0.5
  m_FlareStrength: 1
  m_FlareFadeSpeed: 3
  m_HaloTexture: {fileID: 0}
  m_SpotCookie: {fileID: 10001, guid: 0000000000000000e000000000000000, type: 0}
  m_DefaultReflectionMode: 0
  m_DefaultReflectionResolution: 128
  m_ReflectionBounces: 1
  m_ReflectionIntensity: 1
  m_CustomReflection: {fileID: 0}
  m_Sun: {fileID: 0}
  m_IndirectSpecularColor: {r: 0, g: 0, b: 0, a: 1}
  m_UseRadianceAmbientProbe: 0
--- !u!157 &3
LightmapSettings:
  m_ObjectHideFlags: 0
  serializedVersion: 12
  m_GIWorkflowMode: 1
  m_GISettings:
    serializedVersion: 2
    m_BounceScale: 1
    m_IndirectOutputScale: 1
    m_AlbedoBoost: 1
    m_EnvironmentLightingMode: 0
    m_EnableBakedLightmaps: 1
    m_EnableRealtimeLightmaps: 1
  m_LightmapEditorSettings:
    serializedVersion: 12
    m_Resolution: 2
    m_BakeResolution: 40
    m_AtlasSize: 1024
    m_AO: 0
    m_AOMaxDistance: 1
    m_CompAOExponent: 1
    m_CompAOExponentDirect: 0
    m_ExtractAmbientOcclusion: 0
    m_Padding: 2
    m_LightmapParameters: {fileID: 0}
    m_LightmapsBakeMode: 1
    m_TextureCompression: 1
    m_FinalGather: 0
    m_FinalGatherFiltering: 1
    m_FinalGatherRayCount: 256
    m_ReflectionCompression: 2
    m_MixedBakeMode: 1
    m_BakeBackend: 0
    m_PVRSampling: 1
    m_PVRDirectSampleCount: 32
    m_PVRSampleCount: 512
    m_PVRBounces: 2
    m_PVREnvironmentSampleCount: 512
    m_PVREnvironmentReferencePointCount: 2048
    m_PVRFilteringMode: 0
    m_PVRDenoiserTypeDirect: 0
    m_PVRDenoiserTypeIndirect: 0
    m_PVRDenoiserTypeAO: 0
    m_PVRFilterTypeDirect: 0
    m_PVRFilterTypeIndirect: 0
    m_PVRFilterTypeAO: 0
    m_PVREnvironmentMIS: 0
    m_PVRCulling: 1
    m_PVRFilteringGaussRadiusDirect: 1
    m_PVRFilteringGaussRadiusIndirect: 5
    m_PVRFilteringGaussRadiusAO: 2
    m_PVRFilteringAtrousPositionSigmaDirect: 0.5
    m_PVRFilteringAtrousPositionSigmaIndirect: 2
    m_PVRFilteringAtrousPositionSigmaAO: 1
    m_ExportTrainingData: 0
    m_TrainingDataDestination: TrainingData
    m_LightProbeSampleCountMultiplier: 4
  m_LightingDataAsset: {fileID: 0}
  m_LightingSettings: {fileID: 4890085278179872738, guid: f14d2e5aa4117834da7679d6cf7d9bd8, type: 2}
--- !u!196 &4
NavMeshSettings:
  serializedVersion: 2
  m_ObjectHideFlags: 0
  m_BuildSettings:
    serializedVersion: 2
    agentTypeID: 0
    agentRadius: 0.5
    agentHeight: 2
    agentSlope: 45
    agentClimb: 0.4
    ledgeDropHeight: 0
    maxJumpAcrossDistance: 0
    minRegionArea: 2
    manualCellSize: 0
    cellSize: 0.16666667
    manualTileSize: 0
    tileSize: 256
    accuratePlacement: 0
    maxJobWorkers: 0
    preserveTilesOutsideBounds: 0
    debug:
      m_Flags: 0
  m_NavMeshData: {fileID: 0}
--- !u!4 &46611559 stripped
Transform:
  m_CorrespondingSourceObject: {fileID: 4834258576295084, guid: 32923e0a5e036d04fa9be7ef9cc548e4, type: 3}
  m_PrefabInstance: {fileID: 292711510}
  m_PrefabAsset: {fileID: 0}
--- !u!1001 &67828754
PrefabInstance:
  m_ObjectHideFlags: 0
  serializedVersion: 2
  m_Modification:
    m_TransformParent: {fileID: 478332119}
    m_Modifications:
    - target: {fileID: 4122938131327598, guid: a37573ad5d3fb7a47997aadbf0976202, type: 3}
      propertyPath: m_RootOrder
      value: 11
      objectReference: {fileID: 0}
    - target: {fileID: 4122938131327598, guid: a37573ad5d3fb7a47997aadbf0976202, type: 3}
      propertyPath: m_LocalPosition.x
      value: 1.02
      objectReference: {fileID: 0}
    - target: {fileID: 4122938131327598, guid: a37573ad5d3fb7a47997aadbf0976202, type: 3}
      propertyPath: m_LocalPosition.y
      value: -0.087
      objectReference: {fileID: 0}
    - target: {fileID: 4122938131327598, guid: a37573ad5d3fb7a47997aadbf0976202, type: 3}
      propertyPath: m_LocalPosition.z
      value: 1.03
      objectReference: {fileID: 0}
    - target: {fileID: 4122938131327598, guid: a37573ad5d3fb7a47997aadbf0976202, type: 3}
      propertyPath: m_LocalRotation.w
      value: 1
      objectReference: {fileID: 0}
    - target: {fileID: 4122938131327598, guid: a37573ad5d3fb7a47997aadbf0976202, type: 3}
      propertyPath: m_LocalRotation.x
      value: 0
      objectReference: {fileID: 0}
    - target: {fileID: 4122938131327598, guid: a37573ad5d3fb7a47997aadbf0976202, type: 3}
      propertyPath: m_LocalRotation.y
      value: -0
      objectReference: {fileID: 0}
    - target: {fileID: 4122938131327598, guid: a37573ad5d3fb7a47997aadbf0976202, type: 3}
      propertyPath: m_LocalRotation.z
      value: -0
      objectReference: {fileID: 0}
    m_RemovedComponents: []
  m_SourcePrefab: {fileID: 100100000, guid: a37573ad5d3fb7a47997aadbf0976202, type: 3}
--- !u!1001 &97015750
PrefabInstance:
  m_ObjectHideFlags: 0
  serializedVersion: 2
  m_Modification:
    m_TransformParent: {fileID: 417816225}
    m_Modifications:
    - target: {fileID: 4715476648483898, guid: 59c7078d344dfe94f97e849fe4f0dce0, type: 3}
      propertyPath: m_RootOrder
      value: 9
      objectReference: {fileID: 0}
    - target: {fileID: 4715476648483898, guid: 59c7078d344dfe94f97e849fe4f0dce0, type: 3}
      propertyPath: m_LocalPosition.x
      value: -0.00033819675
      objectReference: {fileID: 0}
    - target: {fileID: 4715476648483898, guid: 59c7078d344dfe94f97e849fe4f0dce0, type: 3}
      propertyPath: m_LocalPosition.y
      value: -0.26
      objectReference: {fileID: 0}
    - target: {fileID: 4715476648483898, guid: 59c7078d344dfe94f97e849fe4f0dce0, type: 3}
      propertyPath: m_LocalPosition.z
      value: -1.42
      objectReference: {fileID: 0}
    - target: {fileID: 4715476648483898, guid: 59c7078d344dfe94f97e849fe4f0dce0, type: 3}
      propertyPath: m_LocalRotation.w
      value: 0.9279862
      objectReference: {fileID: 0}
    - target: {fileID: 4715476648483898, guid: 59c7078d344dfe94f97e849fe4f0dce0, type: 3}
      propertyPath: m_LocalRotation.x
      value: 0.052685894
      objectReference: {fileID: 0}
    - target: {fileID: 4715476648483898, guid: 59c7078d344dfe94f97e849fe4f0dce0, type: 3}
      propertyPath: m_LocalRotation.y
      value: -0.33963495
      objectReference: {fileID: 0}
    - target: {fileID: 4715476648483898, guid: 59c7078d344dfe94f97e849fe4f0dce0, type: 3}
      propertyPath: m_LocalRotation.z
      value: -0.14392345
      objectReference: {fileID: 0}
    - target: {fileID: 4715476648483898, guid: 59c7078d344dfe94f97e849fe4f0dce0, type: 3}
      propertyPath: m_LocalEulerAnglesHint.x
      value: 0.001
      objectReference: {fileID: 0}
    - target: {fileID: 4715476648483898, guid: 59c7078d344dfe94f97e849fe4f0dce0, type: 3}
      propertyPath: m_LocalEulerAnglesHint.y
      value: -40.205
      objectReference: {fileID: 0}
    - target: {fileID: 4715476648483898, guid: 59c7078d344dfe94f97e849fe4f0dce0, type: 3}
      propertyPath: m_LocalEulerAnglesHint.z
      value: -17.632
      objectReference: {fileID: 0}
    m_RemovedComponents: []
  m_SourcePrefab: {fileID: 100100000, guid: 59c7078d344dfe94f97e849fe4f0dce0, type: 3}
--- !u!1001 &109609825
PrefabInstance:
  m_ObjectHideFlags: 0
  serializedVersion: 2
  m_Modification:
    m_TransformParent: {fileID: 1803619602}
    m_Modifications:
    - target: {fileID: 4991551096386450, guid: a46ec114d125b3743bcceb157df289c6, type: 3}
      propertyPath: m_RootOrder
      value: 2
      objectReference: {fileID: 0}
    - target: {fileID: 4991551096386450, guid: a46ec114d125b3743bcceb157df289c6, type: 3}
      propertyPath: m_LocalPosition.x
      value: 0
      objectReference: {fileID: 0}
    - target: {fileID: 4991551096386450, guid: a46ec114d125b3743bcceb157df289c6, type: 3}
      propertyPath: m_LocalPosition.y
      value: 0
      objectReference: {fileID: 0}
    - target: {fileID: 4991551096386450, guid: a46ec114d125b3743bcceb157df289c6, type: 3}
      propertyPath: m_LocalPosition.z
      value: 0.7
      objectReference: {fileID: 0}
    - target: {fileID: 4991551096386450, guid: a46ec114d125b3743bcceb157df289c6, type: 3}
      propertyPath: m_LocalRotation.w
      value: 1
      objectReference: {fileID: 0}
    - target: {fileID: 4991551096386450, guid: a46ec114d125b3743bcceb157df289c6, type: 3}
      propertyPath: m_LocalRotation.x
      value: -0
      objectReference: {fileID: 0}
    - target: {fileID: 4991551096386450, guid: a46ec114d125b3743bcceb157df289c6, type: 3}
      propertyPath: m_LocalRotation.y
      value: -0
      objectReference: {fileID: 0}
    - target: {fileID: 4991551096386450, guid: a46ec114d125b3743bcceb157df289c6, type: 3}
      propertyPath: m_LocalRotation.z
      value: -0
      objectReference: {fileID: 0}
    m_RemovedComponents: []
  m_SourcePrefab: {fileID: 100100000, guid: a46ec114d125b3743bcceb157df289c6, type: 3}
--- !u!1 &112263248
GameObject:
  m_ObjectHideFlags: 0
  m_CorrespondingSourceObject: {fileID: 0}
  m_PrefabInstance: {fileID: 0}
  m_PrefabAsset: {fileID: 0}
  serializedVersion: 6
  m_Component:
  - component: {fileID: 112263252}
  - component: {fileID: 112263251}
  - component: {fileID: 112263250}
  - component: {fileID: 112263249}
  m_Layer: 0
  m_Name: Plane
  m_TagString: Untagged
  m_Icon: {fileID: 0}
  m_NavMeshLayer: 0
  m_StaticEditorFlags: 0
  m_IsActive: 1
--- !u!23 &112263249
MeshRenderer:
  m_ObjectHideFlags: 0
  m_CorrespondingSourceObject: {fileID: 0}
  m_PrefabInstance: {fileID: 0}
  m_PrefabAsset: {fileID: 0}
  m_GameObject: {fileID: 112263248}
  m_Enabled: 1
  m_CastShadows: 1
  m_ReceiveShadows: 1
  m_DynamicOccludee: 1
  m_StaticShadowCaster: 0
  m_MotionVectors: 1
  m_LightProbeUsage: 1
  m_ReflectionProbeUsage: 1
  m_RayTracingMode: 2
  m_RayTraceProcedural: 0
  m_RenderingLayerMask: 1
  m_RendererPriority: 0
  m_Materials:
  - {fileID: 10302, guid: 0000000000000000f000000000000000, type: 0}
  m_StaticBatchInfo:
    firstSubMesh: 0
    subMeshCount: 0
  m_StaticBatchRoot: {fileID: 0}
  m_ProbeAnchor: {fileID: 0}
  m_LightProbeVolumeOverride: {fileID: 0}
  m_ScaleInLightmap: 1
  m_ReceiveGI: 1
  m_PreserveUVs: 1
  m_IgnoreNormalsForChartDetection: 0
  m_ImportantGI: 0
  m_StitchLightmapSeams: 1
  m_SelectedEditorRenderState: 3
  m_MinimumChartSize: 4
  m_AutoUVMaxDistance: 0.5
  m_AutoUVMaxAngle: 89
  m_LightmapParameters: {fileID: 0}
  m_SortingLayerID: 0
  m_SortingLayer: 0
  m_SortingOrder: 0
  m_AdditionalVertexStreams: {fileID: 0}
--- !u!64 &112263250
MeshCollider:
  m_ObjectHideFlags: 0
  m_CorrespondingSourceObject: {fileID: 0}
  m_PrefabInstance: {fileID: 0}
  m_PrefabAsset: {fileID: 0}
  m_GameObject: {fileID: 112263248}
  m_Material: {fileID: 0}
  m_IsTrigger: 0
  m_Enabled: 1
  serializedVersion: 4
  m_Convex: 0
  m_CookingOptions: 30
  m_Mesh: {fileID: 10209, guid: 0000000000000000e000000000000000, type: 0}
--- !u!33 &112263251
MeshFilter:
  m_ObjectHideFlags: 0
  m_CorrespondingSourceObject: {fileID: 0}
  m_PrefabInstance: {fileID: 0}
  m_PrefabAsset: {fileID: 0}
  m_GameObject: {fileID: 112263248}
  m_Mesh: {fileID: 10209, guid: 0000000000000000e000000000000000, type: 0}
--- !u!4 &112263252
Transform:
  m_ObjectHideFlags: 0
  m_CorrespondingSourceObject: {fileID: 0}
  m_PrefabInstance: {fileID: 0}
  m_PrefabAsset: {fileID: 0}
  m_GameObject: {fileID: 112263248}
  m_LocalRotation: {x: 0, y: 0, z: 0, w: 1}
  m_LocalPosition: {x: 0, y: 0, z: 0}
  m_LocalScale: {x: 4.547925, y: 4.547925, z: 4.547925}
  m_ConstrainProportionsScale: 0
  m_Children: []
  m_Father: {fileID: 0}
  m_RootOrder: 5
  m_LocalEulerAnglesHint: {x: 0, y: 0, z: 0}
--- !u!1001 &120975267
PrefabInstance:
  m_ObjectHideFlags: 0
  serializedVersion: 2
  m_Modification:
    m_TransformParent: {fileID: 478332119}
    m_Modifications:
    - target: {fileID: 4162059394397328, guid: 4565e6ec6e5edae4b9181a1591dd7ccf, type: 3}
      propertyPath: m_RootOrder
      value: 4
      objectReference: {fileID: 0}
    - target: {fileID: 4162059394397328, guid: 4565e6ec6e5edae4b9181a1591dd7ccf, type: 3}
      propertyPath: m_LocalPosition.x
      value: 0.37
      objectReference: {fileID: 0}
    - target: {fileID: 4162059394397328, guid: 4565e6ec6e5edae4b9181a1591dd7ccf, type: 3}
      propertyPath: m_LocalPosition.y
      value: 0
      objectReference: {fileID: 0}
    - target: {fileID: 4162059394397328, guid: 4565e6ec6e5edae4b9181a1591dd7ccf, type: 3}
      propertyPath: m_LocalPosition.z
      value: -0.62
      objectReference: {fileID: 0}
    - target: {fileID: 4162059394397328, guid: 4565e6ec6e5edae4b9181a1591dd7ccf, type: 3}
      propertyPath: m_LocalRotation.w
      value: 1
      objectReference: {fileID: 0}
    - target: {fileID: 4162059394397328, guid: 4565e6ec6e5edae4b9181a1591dd7ccf, type: 3}
      propertyPath: m_LocalRotation.x
      value: 0
      objectReference: {fileID: 0}
    - target: {fileID: 4162059394397328, guid: 4565e6ec6e5edae4b9181a1591dd7ccf, type: 3}
      propertyPath: m_LocalRotation.y
      value: -0
      objectReference: {fileID: 0}
    - target: {fileID: 4162059394397328, guid: 4565e6ec6e5edae4b9181a1591dd7ccf, type: 3}
      propertyPath: m_LocalRotation.z
      value: -0
      objectReference: {fileID: 0}
    m_RemovedComponents: []
  m_SourcePrefab: {fileID: 100100000, guid: 4565e6ec6e5edae4b9181a1591dd7ccf, type: 3}
--- !u!1001 &161397804
PrefabInstance:
  m_ObjectHideFlags: 0
  serializedVersion: 2
  m_Modification:
    m_TransformParent: {fileID: 417816225}
    m_Modifications:
    - target: {fileID: 4884142329925802, guid: eb20313e46ca14d4ab638ede406702d4, type: 3}
      propertyPath: m_RootOrder
      value: 2
      objectReference: {fileID: 0}
    - target: {fileID: 4884142329925802, guid: eb20313e46ca14d4ab638ede406702d4, type: 3}
      propertyPath: m_LocalPosition.x
      value: 0
      objectReference: {fileID: 0}
    - target: {fileID: 4884142329925802, guid: eb20313e46ca14d4ab638ede406702d4, type: 3}
      propertyPath: m_LocalPosition.y
      value: -1.36
      objectReference: {fileID: 0}
    - target: {fileID: 4884142329925802, guid: eb20313e46ca14d4ab638ede406702d4, type: 3}
      propertyPath: m_LocalPosition.z
      value: -2.31
      objectReference: {fileID: 0}
    - target: {fileID: 4884142329925802, guid: eb20313e46ca14d4ab638ede406702d4, type: 3}
      propertyPath: m_LocalRotation.w
      value: 0.7274585
      objectReference: {fileID: 0}
    - target: {fileID: 4884142329925802, guid: eb20313e46ca14d4ab638ede406702d4, type: 3}
      propertyPath: m_LocalRotation.x
      value: -0.10641155
      objectReference: {fileID: 0}
    - target: {fileID: 4884142329925802, guid: eb20313e46ca14d4ab638ede406702d4, type: 3}
      propertyPath: m_LocalRotation.y
      value: 0.67071235
      objectReference: {fileID: 0}
    - target: {fileID: 4884142329925802, guid: eb20313e46ca14d4ab638ede406702d4, type: 3}
      propertyPath: m_LocalRotation.z
      value: -0.098110765
      objectReference: {fileID: 0}
    m_RemovedComponents: []
  m_SourcePrefab: {fileID: 100100000, guid: eb20313e46ca14d4ab638ede406702d4, type: 3}
--- !u!4 &161397805 stripped
Transform:
  m_CorrespondingSourceObject: {fileID: 4884142329925802, guid: eb20313e46ca14d4ab638ede406702d4, type: 3}
  m_PrefabInstance: {fileID: 161397804}
  m_PrefabAsset: {fileID: 0}
--- !u!1001 &235087436
PrefabInstance:
  m_ObjectHideFlags: 0
  serializedVersion: 2
  m_Modification:
    m_TransformParent: {fileID: 478332119}
    m_Modifications:
    - target: {fileID: 4987040397371170, guid: 20bf4e5832bca134cb9c385228c3fab4, type: 3}
      propertyPath: m_RootOrder
      value: 8
      objectReference: {fileID: 0}
    - target: {fileID: 4987040397371170, guid: 20bf4e5832bca134cb9c385228c3fab4, type: 3}
      propertyPath: m_LocalPosition.x
      value: -0.06
      objectReference: {fileID: 0}
    - target: {fileID: 4987040397371170, guid: 20bf4e5832bca134cb9c385228c3fab4, type: 3}
      propertyPath: m_LocalPosition.y
      value: 0.978
      objectReference: {fileID: 0}
    - target: {fileID: 4987040397371170, guid: 20bf4e5832bca134cb9c385228c3fab4, type: 3}
      propertyPath: m_LocalPosition.z
      value: -0.26
      objectReference: {fileID: 0}
    - target: {fileID: 4987040397371170, guid: 20bf4e5832bca134cb9c385228c3fab4, type: 3}
      propertyPath: m_LocalRotation.w
      value: 0.00000058114523
      objectReference: {fileID: 0}
    - target: {fileID: 4987040397371170, guid: 20bf4e5832bca134cb9c385228c3fab4, type: 3}
      propertyPath: m_LocalRotation.x
      value: -0
      objectReference: {fileID: 0}
    - target: {fileID: 4987040397371170, guid: 20bf4e5832bca134cb9c385228c3fab4, type: 3}
      propertyPath: m_LocalRotation.y
      value: -1
      objectReference: {fileID: 0}
    - target: {fileID: 4987040397371170, guid: 20bf4e5832bca134cb9c385228c3fab4, type: 3}
      propertyPath: m_LocalRotation.z
      value: -0
      objectReference: {fileID: 0}
    m_RemovedComponents: []
  m_SourcePrefab: {fileID: 100100000, guid: 20bf4e5832bca134cb9c385228c3fab4, type: 3}
--- !u!4 &250316666 stripped
Transform:
  m_CorrespondingSourceObject: {fileID: 4390693999286280, guid: 64aab82ac059b3b4e8c99af9d3bf4a26, type: 3}
  m_PrefabInstance: {fileID: 1564127730}
  m_PrefabAsset: {fileID: 0}
--- !u!1001 &252214166
PrefabInstance:
  m_ObjectHideFlags: 0
  serializedVersion: 2
  m_Modification:
    m_TransformParent: {fileID: 478332119}
    m_Modifications:
    - target: {fileID: 4802539185917164, guid: 4eca7a8ef879cfb41b294a8c0d69ea58, type: 3}
      propertyPath: m_RootOrder
      value: 3
      objectReference: {fileID: 0}
    - target: {fileID: 4802539185917164, guid: 4eca7a8ef879cfb41b294a8c0d69ea58, type: 3}
      propertyPath: m_LocalPosition.x
      value: 1.03
      objectReference: {fileID: 0}
    - target: {fileID: 4802539185917164, guid: 4eca7a8ef879cfb41b294a8c0d69ea58, type: 3}
      propertyPath: m_LocalPosition.y
      value: -0.172
      objectReference: {fileID: 0}
    - target: {fileID: 4802539185917164, guid: 4eca7a8ef879cfb41b294a8c0d69ea58, type: 3}
      propertyPath: m_LocalPosition.z
      value: -1.05
      objectReference: {fileID: 0}
    - target: {fileID: 4802539185917164, guid: 4eca7a8ef879cfb41b294a8c0d69ea58, type: 3}
      propertyPath: m_LocalRotation.w
      value: 0.9964215
      objectReference: {fileID: 0}
    - target: {fileID: 4802539185917164, guid: 4eca7a8ef879cfb41b294a8c0d69ea58, type: 3}
      propertyPath: m_LocalRotation.x
      value: -0
      objectReference: {fileID: 0}
    - target: {fileID: 4802539185917164, guid: 4eca7a8ef879cfb41b294a8c0d69ea58, type: 3}
      propertyPath: m_LocalRotation.y
      value: -0
      objectReference: {fileID: 0}
    - target: {fileID: 4802539185917164, guid: 4eca7a8ef879cfb41b294a8c0d69ea58, type: 3}
      propertyPath: m_LocalRotation.z
      value: 0.08452369
      objectReference: {fileID: 0}
    m_RemovedComponents: []
  m_SourcePrefab: {fileID: 100100000, guid: 4eca7a8ef879cfb41b294a8c0d69ea58, type: 3}
--- !u!1001 &272724254
PrefabInstance:
  m_ObjectHideFlags: 0
  serializedVersion: 2
  m_Modification:
    m_TransformParent: {fileID: 417816225}
    m_Modifications:
    - target: {fileID: 4747155658115944, guid: a5ad3b53c234b9040b754b2c2c9d8fc6, type: 3}
      propertyPath: m_RootOrder
      value: 5
      objectReference: {fileID: 0}
    - target: {fileID: 4747155658115944, guid: a5ad3b53c234b9040b754b2c2c9d8fc6, type: 3}
      propertyPath: m_LocalPosition.x
      value: 0.15999995
      objectReference: {fileID: 0}
    - target: {fileID: 4747155658115944, guid: a5ad3b53c234b9040b754b2c2c9d8fc6, type: 3}
      propertyPath: m_LocalPosition.y
      value: -1.35
      objectReference: {fileID: 0}
    - target: {fileID: 4747155658115944, guid: a5ad3b53c234b9040b754b2c2c9d8fc6, type: 3}
      propertyPath: m_LocalPosition.z
      value: -0.75
      objectReference: {fileID: 0}
    - target: {fileID: 4747155658115944, guid: a5ad3b53c234b9040b754b2c2c9d8fc6, type: 3}
      propertyPath: m_LocalRotation.w
      value: 0.9607652
      objectReference: {fileID: 0}
    - target: {fileID: 4747155658115944, guid: a5ad3b53c234b9040b754b2c2c9d8fc6, type: 3}
      propertyPath: m_LocalRotation.x
      value: -0.0037697698
      objectReference: {fileID: 0}
    - target: {fileID: 4747155658115944, guid: a5ad3b53c234b9040b754b2c2c9d8fc6, type: 3}
      propertyPath: m_LocalRotation.y
      value: -0.27334192
      objectReference: {fileID: 0}
    - target: {fileID: 4747155658115944, guid: a5ad3b53c234b9040b754b2c2c9d8fc6, type: 3}
      propertyPath: m_LocalRotation.z
      value: 0.046907507
      objectReference: {fileID: 0}
    - target: {fileID: 4747155658115944, guid: a5ad3b53c234b9040b754b2c2c9d8fc6, type: 3}
      propertyPath: m_LocalEulerAnglesHint.x
      value: 1.054
      objectReference: {fileID: 0}
    - target: {fileID: 4747155658115944, guid: a5ad3b53c234b9040b754b2c2c9d8fc6, type: 3}
      propertyPath: m_LocalEulerAnglesHint.y
      value: -31.714
      objectReference: {fileID: 0}
    - target: {fileID: 4747155658115944, guid: a5ad3b53c234b9040b754b2c2c9d8fc6, type: 3}
      propertyPath: m_LocalEulerAnglesHint.z
      value: 5.2910004
      objectReference: {fileID: 0}
    m_RemovedComponents: []
  m_SourcePrefab: {fileID: 100100000, guid: a5ad3b53c234b9040b754b2c2c9d8fc6, type: 3}
--- !u!1001 &278104763
PrefabInstance:
  m_ObjectHideFlags: 0
  serializedVersion: 2
  m_Modification:
    m_TransformParent: {fileID: 478332119}
    m_Modifications:
    - target: {fileID: 4997397545812890, guid: cdc64358fb600b94c83082531a9b43af, type: 3}
      propertyPath: m_RootOrder
      value: 5
      objectReference: {fileID: 0}
    - target: {fileID: 4997397545812890, guid: cdc64358fb600b94c83082531a9b43af, type: 3}
      propertyPath: m_LocalPosition.x
      value: 1.02
      objectReference: {fileID: 0}
    - target: {fileID: 4997397545812890, guid: cdc64358fb600b94c83082531a9b43af, type: 3}
      propertyPath: m_LocalPosition.y
      value: -0.173
      objectReference: {fileID: 0}
    - target: {fileID: 4997397545812890, guid: cdc64358fb600b94c83082531a9b43af, type: 3}
      propertyPath: m_LocalPosition.z
      value: -2.1
      objectReference: {fileID: 0}
    - target: {fileID: 4997397545812890, guid: cdc64358fb600b94c83082531a9b43af, type: 3}
      propertyPath: m_LocalRotation.w
      value: 0.5000001
      objectReference: {fileID: 0}
    - target: {fileID: 4997397545812890, guid: cdc64358fb600b94c83082531a9b43af, type: 3}
      propertyPath: m_LocalRotation.x
      value: -0.49999997
      objectReference: {fileID: 0}
    - target: {fileID: 4997397545812890, guid: cdc64358fb600b94c83082531a9b43af, type: 3}
      propertyPath: m_LocalRotation.y
      value: -0.50000006
      objectReference: {fileID: 0}
    - target: {fileID: 4997397545812890, guid: cdc64358fb600b94c83082531a9b43af, type: 3}
      propertyPath: m_LocalRotation.z
      value: -0.49999997
      objectReference: {fileID: 0}
    m_RemovedComponents: []
  m_SourcePrefab: {fileID: 100100000, guid: cdc64358fb600b94c83082531a9b43af, type: 3}
--- !u!4 &291168762 stripped
Transform:
  m_CorrespondingSourceObject: {fileID: 4987040397371170, guid: 20bf4e5832bca134cb9c385228c3fab4, type: 3}
  m_PrefabInstance: {fileID: 235087436}
  m_PrefabAsset: {fileID: 0}
--- !u!1001 &292711510
PrefabInstance:
  m_ObjectHideFlags: 0
  serializedVersion: 2
  m_Modification:
    m_TransformParent: {fileID: 1803619602}
    m_Modifications:
    - target: {fileID: 4834258576295084, guid: 32923e0a5e036d04fa9be7ef9cc548e4, type: 3}
      propertyPath: m_RootOrder
      value: 0
      objectReference: {fileID: 0}
    - target: {fileID: 4834258576295084, guid: 32923e0a5e036d04fa9be7ef9cc548e4, type: 3}
      propertyPath: m_LocalPosition.x
      value: 0
      objectReference: {fileID: 0}
    - target: {fileID: 4834258576295084, guid: 32923e0a5e036d04fa9be7ef9cc548e4, type: 3}
      propertyPath: m_LocalPosition.y
      value: 0
      objectReference: {fileID: 0}
    - target: {fileID: 4834258576295084, guid: 32923e0a5e036d04fa9be7ef9cc548e4, type: 3}
      propertyPath: m_LocalPosition.z
      value: -0.7
      objectReference: {fileID: 0}
    - target: {fileID: 4834258576295084, guid: 32923e0a5e036d04fa9be7ef9cc548e4, type: 3}
      propertyPath: m_LocalRotation.w
      value: 1
      objectReference: {fileID: 0}
    - target: {fileID: 4834258576295084, guid: 32923e0a5e036d04fa9be7ef9cc548e4, type: 3}
      propertyPath: m_LocalRotation.x
      value: -0
      objectReference: {fileID: 0}
    - target: {fileID: 4834258576295084, guid: 32923e0a5e036d04fa9be7ef9cc548e4, type: 3}
      propertyPath: m_LocalRotation.y
      value: -0
      objectReference: {fileID: 0}
    - target: {fileID: 4834258576295084, guid: 32923e0a5e036d04fa9be7ef9cc548e4, type: 3}
      propertyPath: m_LocalRotation.z
      value: -0
      objectReference: {fileID: 0}
    m_RemovedComponents: []
  m_SourcePrefab: {fileID: 100100000, guid: 32923e0a5e036d04fa9be7ef9cc548e4, type: 3}
--- !u!1001 &307029376
PrefabInstance:
  m_ObjectHideFlags: 0
  serializedVersion: 2
  m_Modification:
    m_TransformParent: {fileID: 417816225}
    m_Modifications:
    - target: {fileID: 4249589822194966, guid: 9867510fa3e6d11479b56ff45cf8b2ca, type: 3}
      propertyPath: m_RootOrder
      value: 1
      objectReference: {fileID: 0}
    - target: {fileID: 4249589822194966, guid: 9867510fa3e6d11479b56ff45cf8b2ca, type: 3}
      propertyPath: m_LocalPosition.x
      value: 0
      objectReference: {fileID: 0}
    - target: {fileID: 4249589822194966, guid: 9867510fa3e6d11479b56ff45cf8b2ca, type: 3}
      propertyPath: m_LocalPosition.y
      value: -1.4
      objectReference: {fileID: 0}
    - target: {fileID: 4249589822194966, guid: 9867510fa3e6d11479b56ff45cf8b2ca, type: 3}
      propertyPath: m_LocalPosition.z
      value: 2.09
      objectReference: {fileID: 0}
    - target: {fileID: 4249589822194966, guid: 9867510fa3e6d11479b56ff45cf8b2ca, type: 3}
      propertyPath: m_LocalRotation.w
      value: 0.57929844
      objectReference: {fileID: 0}
    - target: {fileID: 4249589822194966, guid: 9867510fa3e6d11479b56ff45cf8b2ca, type: 3}
      propertyPath: m_LocalRotation.x
      value: -0
      objectReference: {fileID: 0}
    - target: {fileID: 4249589822194966, guid: 9867510fa3e6d11479b56ff45cf8b2ca, type: 3}
      propertyPath: m_LocalRotation.y
      value: 0.8151156
      objectReference: {fileID: 0}
    - target: {fileID: 4249589822194966, guid: 9867510fa3e6d11479b56ff45cf8b2ca, type: 3}
      propertyPath: m_LocalRotation.z
      value: -0
      objectReference: {fileID: 0}
    m_RemovedComponents: []
  m_SourcePrefab: {fileID: 100100000, guid: 9867510fa3e6d11479b56ff45cf8b2ca, type: 3}
--- !u!4 &307029377 stripped
Transform:
  m_CorrespondingSourceObject: {fileID: 4249589822194966, guid: 9867510fa3e6d11479b56ff45cf8b2ca, type: 3}
  m_PrefabInstance: {fileID: 307029376}
  m_PrefabAsset: {fileID: 0}
--- !u!1001 &312106497
PrefabInstance:
  m_ObjectHideFlags: 0
  serializedVersion: 2
  m_Modification:
    m_TransformParent: {fileID: 478332119}
    m_Modifications:
    - target: {fileID: 4262163473691232, guid: 9568f15e6607c70469b5b2657c7cd0b3, type: 3}
      propertyPath: m_RootOrder
      value: 2
      objectReference: {fileID: 0}
    - target: {fileID: 4262163473691232, guid: 9568f15e6607c70469b5b2657c7cd0b3, type: 3}
      propertyPath: m_LocalPosition.x
      value: -0.06
      objectReference: {fileID: 0}
    - target: {fileID: 4262163473691232, guid: 9568f15e6607c70469b5b2657c7cd0b3, type: 3}
      propertyPath: m_LocalPosition.y
      value: 0.679
      objectReference: {fileID: 0}
    - target: {fileID: 4262163473691232, guid: 9568f15e6607c70469b5b2657c7cd0b3, type: 3}
      propertyPath: m_LocalPosition.z
      value: -1.47
      objectReference: {fileID: 0}
    - target: {fileID: 4262163473691232, guid: 9568f15e6607c70469b5b2657c7cd0b3, type: 3}
      propertyPath: m_LocalRotation.w
      value: 1
      objectReference: {fileID: 0}
    - target: {fileID: 4262163473691232, guid: 9568f15e6607c70469b5b2657c7cd0b3, type: 3}
      propertyPath: m_LocalRotation.x
      value: 0
      objectReference: {fileID: 0}
    - target: {fileID: 4262163473691232, guid: 9568f15e6607c70469b5b2657c7cd0b3, type: 3}
      propertyPath: m_LocalRotation.y
      value: -0
      objectReference: {fileID: 0}
    - target: {fileID: 4262163473691232, guid: 9568f15e6607c70469b5b2657c7cd0b3, type: 3}
      propertyPath: m_LocalRotation.z
      value: -0
      objectReference: {fileID: 0}
    m_RemovedComponents: []
  m_SourcePrefab: {fileID: 100100000, guid: 9568f15e6607c70469b5b2657c7cd0b3, type: 3}
--- !u!4 &313788027 stripped
Transform:
  m_CorrespondingSourceObject: {fileID: 4087377801532572, guid: aa0b611ccd277dd4f9e8ea7b8240c179, type: 3}
  m_PrefabInstance: {fileID: 917533733}
  m_PrefabAsset: {fileID: 0}
--- !u!1001 &319935437
PrefabInstance:
  m_ObjectHideFlags: 0
  serializedVersion: 2
  m_Modification:
    m_TransformParent: {fileID: 478332119}
    m_Modifications:
    - target: {fileID: 4060111524607302, guid: 61e7a4d4943a95248a9d88d97d680b61, type: 3}
      propertyPath: m_RootOrder
      value: 6
      objectReference: {fileID: 0}
    - target: {fileID: 4060111524607302, guid: 61e7a4d4943a95248a9d88d97d680b61, type: 3}
      propertyPath: m_LocalPosition.x
      value: 0.53
      objectReference: {fileID: 0}
    - target: {fileID: 4060111524607302, guid: 61e7a4d4943a95248a9d88d97d680b61, type: 3}
      propertyPath: m_LocalPosition.y
      value: 0.035
      objectReference: {fileID: 0}
    - target: {fileID: 4060111524607302, guid: 61e7a4d4943a95248a9d88d97d680b61, type: 3}
      propertyPath: m_LocalPosition.z
      value: -1.99
      objectReference: {fileID: 0}
    - target: {fileID: 4060111524607302, guid: 61e7a4d4943a95248a9d88d97d680b61, type: 3}
      propertyPath: m_LocalRotation.w
      value: 0.5000001
      objectReference: {fileID: 0}
    - target: {fileID: 4060111524607302, guid: 61e7a4d4943a95248a9d88d97d680b61, type: 3}
      propertyPath: m_LocalRotation.x
      value: -0.49999997
      objectReference: {fileID: 0}
    - target: {fileID: 4060111524607302, guid: 61e7a4d4943a95248a9d88d97d680b61, type: 3}
      propertyPath: m_LocalRotation.y
      value: -0.50000006
      objectReference: {fileID: 0}
    - target: {fileID: 4060111524607302, guid: 61e7a4d4943a95248a9d88d97d680b61, type: 3}
      propertyPath: m_LocalRotation.z
      value: -0.49999997
      objectReference: {fileID: 0}
    m_RemovedComponents: []
  m_SourcePrefab: {fileID: 100100000, guid: 61e7a4d4943a95248a9d88d97d680b61, type: 3}
--- !u!1001 &397120895
PrefabInstance:
  m_ObjectHideFlags: 0
  serializedVersion: 2
  m_Modification:
    m_TransformParent: {fileID: 1803619602}
    m_Modifications:
    - target: {fileID: 4676881119222242, guid: 2b1b0183561415e46bf2169710c3c00b, type: 3}
      propertyPath: m_RootOrder
      value: 4
      objectReference: {fileID: 0}
    - target: {fileID: 4676881119222242, guid: 2b1b0183561415e46bf2169710c3c00b, type: 3}
      propertyPath: m_LocalPosition.x
      value: 0
      objectReference: {fileID: 0}
    - target: {fileID: 4676881119222242, guid: 2b1b0183561415e46bf2169710c3c00b, type: 3}
      propertyPath: m_LocalPosition.y
      value: 0.7
      objectReference: {fileID: 0}
    - target: {fileID: 4676881119222242, guid: 2b1b0183561415e46bf2169710c3c00b, type: 3}
      propertyPath: m_LocalPosition.z
      value: -0.7
      objectReference: {fileID: 0}
    - target: {fileID: 4676881119222242, guid: 2b1b0183561415e46bf2169710c3c00b, type: 3}
      propertyPath: m_LocalRotation.w
      value: 1
      objectReference: {fileID: 0}
    - target: {fileID: 4676881119222242, guid: 2b1b0183561415e46bf2169710c3c00b, type: 3}
      propertyPath: m_LocalRotation.x
      value: -0
      objectReference: {fileID: 0}
    - target: {fileID: 4676881119222242, guid: 2b1b0183561415e46bf2169710c3c00b, type: 3}
      propertyPath: m_LocalRotation.y
      value: -0
      objectReference: {fileID: 0}
    - target: {fileID: 4676881119222242, guid: 2b1b0183561415e46bf2169710c3c00b, type: 3}
      propertyPath: m_LocalRotation.z
      value: -0
      objectReference: {fileID: 0}
    m_RemovedComponents: []
  m_SourcePrefab: {fileID: 100100000, guid: 2b1b0183561415e46bf2169710c3c00b, type: 3}
--- !u!1 &417816224
GameObject:
  m_ObjectHideFlags: 0
  m_CorrespondingSourceObject: {fileID: 100000, guid: aa71617ef84e00e469c8384599d6395a, type: 3}
  m_PrefabInstance: {fileID: 0}
  m_PrefabAsset: {fileID: 0}
  serializedVersion: 6
  m_Component:
  - component: {fileID: 417816225}
  m_Layer: 0
  m_Name: CollectiblesSet3
  m_TagString: Untagged
  m_Icon: {fileID: 0}
  m_NavMeshLayer: 0
  m_StaticEditorFlags: 0
  m_IsActive: 1
--- !u!4 &417816225
Transform:
  m_ObjectHideFlags: 0
  m_CorrespondingSourceObject: {fileID: 400000, guid: aa71617ef84e00e469c8384599d6395a, type: 3}
  m_PrefabInstance: {fileID: 0}
  m_PrefabAsset: {fileID: 0}
  m_GameObject: {fileID: 417816224}
  m_LocalRotation: {x: 0, y: 0, z: 0, w: 1}
  m_LocalPosition: {x: 0, y: 2.75, z: 4.51}
  m_LocalScale: {x: 1, y: 1, z: 1}
  m_ConstrainProportionsScale: 0
  m_Children:
  - {fileID: 1668006252}
  - {fileID: 307029377}
  - {fileID: 161397805}
  - {fileID: 1788480068}
  - {fileID: 1128469263}
  - {fileID: 685779782}
  - {fileID: 2110691014}
  - {fileID: 1610531269}
  - {fileID: 1692529971}
  - {fileID: 1941232097}
  m_Father: {fileID: 0}
  m_RootOrder: 0
  m_LocalEulerAnglesHint: {x: 0, y: 0, z: 0}
--- !u!4 &472294898 stripped
Transform:
  m_CorrespondingSourceObject: {fileID: 4060111524607302, guid: 61e7a4d4943a95248a9d88d97d680b61, type: 3}
  m_PrefabInstance: {fileID: 319935437}
  m_PrefabAsset: {fileID: 0}
--- !u!1 &478332118
GameObject:
  m_ObjectHideFlags: 0
  m_CorrespondingSourceObject: {fileID: 100010, guid: e121965519da8964eb443caa891ca78c, type: 3}
  m_PrefabInstance: {fileID: 0}
  m_PrefabAsset: {fileID: 0}
  serializedVersion: 6
  m_Component:
  - component: {fileID: 478332119}
  m_Layer: 0
  m_Name: CollectiblesSet1
  m_TagString: Untagged
  m_Icon: {fileID: 0}
  m_NavMeshLayer: 0
  m_StaticEditorFlags: 0
  m_IsActive: 1
--- !u!4 &478332119
Transform:
  m_ObjectHideFlags: 0
  m_CorrespondingSourceObject: {fileID: 400010, guid: e121965519da8964eb443caa891ca78c, type: 3}
  m_PrefabInstance: {fileID: 0}
  m_PrefabAsset: {fileID: 0}
  m_GameObject: {fileID: 478332118}
  m_LocalRotation: {x: 0, y: 0, z: 0, w: 1}
  m_LocalPosition: {x: 0, y: 2.75, z: -3.74}
  m_LocalScale: {x: 1, y: 1, z: 1}
  m_ConstrainProportionsScale: 0
  m_Children:
  - {fileID: 313788027}
  - {fileID: 1190532094}
  - {fileID: 1332656889}
  - {fileID: 1724814078}
  - {fileID: 877398851}
  - {fileID: 1927244234}
  - {fileID: 472294898}
  - {fileID: 250316666}
  - {fileID: 291168762}
  - {fileID: 1775298805}
  - {fileID: 1677603882}
  - {fileID: 1908261474}
  - {fileID: 2130767442}
  m_Father: {fileID: 0}
  m_RootOrder: 2
  m_LocalEulerAnglesHint: {x: 0, y: 0, z: 0}
--- !u!1001 &497639796
PrefabInstance:
  m_ObjectHideFlags: 0
  serializedVersion: 2
  m_Modification:
    m_TransformParent: {fileID: 417816225}
    m_Modifications:
    - target: {fileID: 4047931590289708, guid: 4c156eaa475a7c44aa3c826450245d6a, type: 3}
      propertyPath: m_RootOrder
      value: 4
      objectReference: {fileID: 0}
    - target: {fileID: 4047931590289708, guid: 4c156eaa475a7c44aa3c826450245d6a, type: 3}
      propertyPath: m_LocalPosition.x
      value: 0.03
      objectReference: {fileID: 0}
    - target: {fileID: 4047931590289708, guid: 4c156eaa475a7c44aa3c826450245d6a, type: 3}
      propertyPath: m_LocalPosition.y
      value: -1.44
      objectReference: {fileID: 0}
    - target: {fileID: 4047931590289708, guid: 4c156eaa475a7c44aa3c826450245d6a, type: 3}
      propertyPath: m_LocalPosition.z
      value: 0.64
      objectReference: {fileID: 0}
    - target: {fileID: 4047931590289708, guid: 4c156eaa475a7c44aa3c826450245d6a, type: 3}
      propertyPath: m_LocalRotation.w
      value: 0.9634652
      objectReference: {fileID: 0}
    - target: {fileID: 4047931590289708, guid: 4c156eaa475a7c44aa3c826450245d6a, type: 3}
      propertyPath: m_LocalRotation.x
      value: -0.014926077
      objectReference: {fileID: 0}
    - target: {fileID: 4047931590289708, guid: 4c156eaa475a7c44aa3c826450245d6a, type: 3}
      propertyPath: m_LocalRotation.y
      value: 0.24905281
      objectReference: {fileID: 0}
    - target: {fileID: 4047931590289708, guid: 4c156eaa475a7c44aa3c826450245d6a, type: 3}
      propertyPath: m_LocalRotation.z
      value: 0.09738967
      objectReference: {fileID: 0}
    m_RemovedComponents: []
  m_SourcePrefab: {fileID: 100100000, guid: 4c156eaa475a7c44aa3c826450245d6a, type: 3}
--- !u!1001 &508614843
PrefabInstance:
  m_ObjectHideFlags: 0
  serializedVersion: 2
  m_Modification:
    m_TransformParent: {fileID: 478332119}
    m_Modifications:
    - target: {fileID: 4643957979841032, guid: 5199d6ab356967f41bd64316c9e60daf, type: 3}
      propertyPath: m_RootOrder
      value: 1
      objectReference: {fileID: 0}
    - target: {fileID: 4643957979841032, guid: 5199d6ab356967f41bd64316c9e60daf, type: 3}
      propertyPath: m_LocalPosition.x
      value: 0.51
      objectReference: {fileID: 0}
    - target: {fileID: 4643957979841032, guid: 5199d6ab356967f41bd64316c9e60daf, type: 3}
      propertyPath: m_LocalPosition.y
      value: 0.444
      objectReference: {fileID: 0}
    - target: {fileID: 4643957979841032, guid: 5199d6ab356967f41bd64316c9e60daf, type: 3}
      propertyPath: m_LocalPosition.z
      value: 0.61
      objectReference: {fileID: 0}
    - target: {fileID: 4643957979841032, guid: 5199d6ab356967f41bd64316c9e60daf, type: 3}
      propertyPath: m_LocalRotation.w
      value: 1
      objectReference: {fileID: 0}
    - target: {fileID: 4643957979841032, guid: 5199d6ab356967f41bd64316c9e60daf, type: 3}
      propertyPath: m_LocalRotation.x
      value: 0
      objectReference: {fileID: 0}
    - target: {fileID: 4643957979841032, guid: 5199d6ab356967f41bd64316c9e60daf, type: 3}
      propertyPath: m_LocalRotation.y
      value: -0
      objectReference: {fileID: 0}
    - target: {fileID: 4643957979841032, guid: 5199d6ab356967f41bd64316c9e60daf, type: 3}
      propertyPath: m_LocalRotation.z
      value: -0
      objectReference: {fileID: 0}
    m_RemovedComponents: []
  m_SourcePrefab: {fileID: 100100000, guid: 5199d6ab356967f41bd64316c9e60daf, type: 3}
--- !u!4 &568482385 stripped
Transform:
  m_CorrespondingSourceObject: {fileID: 4676881119222242, guid: 2b1b0183561415e46bf2169710c3c00b, type: 3}
  m_PrefabInstance: {fileID: 397120895}
  m_PrefabAsset: {fileID: 0}
--- !u!1001 &571460679
PrefabInstance:
  m_ObjectHideFlags: 0
  serializedVersion: 2
  m_Modification:
    m_TransformParent: {fileID: 1803619602}
    m_Modifications:
    - target: {fileID: 4633577083202358, guid: cf80b8a50d670a242a669dd5146c189a, type: 3}
      propertyPath: m_RootOrder
      value: 5
      objectReference: {fileID: 0}
    - target: {fileID: 4633577083202358, guid: cf80b8a50d670a242a669dd5146c189a, type: 3}
      propertyPath: m_LocalPosition.x
      value: 0
      objectReference: {fileID: 0}
    - target: {fileID: 4633577083202358, guid: cf80b8a50d670a242a669dd5146c189a, type: 3}
      propertyPath: m_LocalPosition.y
      value: 0.7
      objectReference: {fileID: 0}
    - target: {fileID: 4633577083202358, guid: cf80b8a50d670a242a669dd5146c189a, type: 3}
      propertyPath: m_LocalPosition.z
      value: -1.4
      objectReference: {fileID: 0}
    - target: {fileID: 4633577083202358, guid: cf80b8a50d670a242a669dd5146c189a, type: 3}
      propertyPath: m_LocalRotation.w
      value: 1
      objectReference: {fileID: 0}
    - target: {fileID: 4633577083202358, guid: cf80b8a50d670a242a669dd5146c189a, type: 3}
      propertyPath: m_LocalRotation.x
      value: -0
      objectReference: {fileID: 0}
    - target: {fileID: 4633577083202358, guid: cf80b8a50d670a242a669dd5146c189a, type: 3}
      propertyPath: m_LocalRotation.y
      value: -0
      objectReference: {fileID: 0}
    - target: {fileID: 4633577083202358, guid: cf80b8a50d670a242a669dd5146c189a, type: 3}
      propertyPath: m_LocalRotation.z
      value: -0
      objectReference: {fileID: 0}
    m_RemovedComponents: []
  m_SourcePrefab: {fileID: 100100000, guid: cf80b8a50d670a242a669dd5146c189a, type: 3}
--- !u!4 &685779782 stripped
Transform:
  m_CorrespondingSourceObject: {fileID: 4747155658115944, guid: a5ad3b53c234b9040b754b2c2c9d8fc6, type: 3}
  m_PrefabInstance: {fileID: 272724254}
  m_PrefabAsset: {fileID: 0}
--- !u!1001 &785862457
PrefabInstance:
  m_ObjectHideFlags: 0
  serializedVersion: 2
  m_Modification:
    m_TransformParent: {fileID: 1803619602}
    m_Modifications:
    - target: {fileID: 4089657239345218, guid: 30b32b7e817116548af38dbf12fb57ce, type: 3}
      propertyPath: m_RootOrder
      value: 3
      objectReference: {fileID: 0}
    - target: {fileID: 4089657239345218, guid: 30b32b7e817116548af38dbf12fb57ce, type: 3}
      propertyPath: m_LocalPosition.x
      value: 0
      objectReference: {fileID: 0}
    - target: {fileID: 4089657239345218, guid: 30b32b7e817116548af38dbf12fb57ce, type: 3}
      propertyPath: m_LocalPosition.y
      value: 0
      objectReference: {fileID: 0}
    - target: {fileID: 4089657239345218, guid: 30b32b7e817116548af38dbf12fb57ce, type: 3}
      propertyPath: m_LocalPosition.z
      value: 0
      objectReference: {fileID: 0}
    - target: {fileID: 4089657239345218, guid: 30b32b7e817116548af38dbf12fb57ce, type: 3}
      propertyPath: m_LocalRotation.w
      value: 1
      objectReference: {fileID: 0}
    - target: {fileID: 4089657239345218, guid: 30b32b7e817116548af38dbf12fb57ce, type: 3}
      propertyPath: m_LocalRotation.x
      value: -0
      objectReference: {fileID: 0}
    - target: {fileID: 4089657239345218, guid: 30b32b7e817116548af38dbf12fb57ce, type: 3}
      propertyPath: m_LocalRotation.y
      value: -0
      objectReference: {fileID: 0}
    - target: {fileID: 4089657239345218, guid: 30b32b7e817116548af38dbf12fb57ce, type: 3}
      propertyPath: m_LocalRotation.z
      value: -0
      objectReference: {fileID: 0}
    m_RemovedComponents: []
  m_SourcePrefab: {fileID: 100100000, guid: 30b32b7e817116548af38dbf12fb57ce, type: 3}
--- !u!4 &834982101 stripped
Transform:
  m_CorrespondingSourceObject: {fileID: 4561323042937306, guid: 1e8a24275f78368469eb95764e51b756, type: 3}
  m_PrefabInstance: {fileID: 1513691651}
  m_PrefabAsset: {fileID: 0}
--- !u!4 &844840033 stripped
Transform:
  m_CorrespondingSourceObject: {fileID: 4991551096386450, guid: a46ec114d125b3743bcceb157df289c6, type: 3}
  m_PrefabInstance: {fileID: 109609825}
  m_PrefabAsset: {fileID: 0}
--- !u!4 &877398851 stripped
Transform:
  m_CorrespondingSourceObject: {fileID: 4162059394397328, guid: 4565e6ec6e5edae4b9181a1591dd7ccf, type: 3}
  m_PrefabInstance: {fileID: 120975267}
  m_PrefabAsset: {fileID: 0}
--- !u!1001 &917533733
PrefabInstance:
  m_ObjectHideFlags: 0
  serializedVersion: 2
  m_Modification:
    m_TransformParent: {fileID: 478332119}
    m_Modifications:
    - target: {fileID: 4087377801532572, guid: aa0b611ccd277dd4f9e8ea7b8240c179, type: 3}
      propertyPath: m_RootOrder
      value: 0
      objectReference: {fileID: 0}
    - target: {fileID: 4087377801532572, guid: aa0b611ccd277dd4f9e8ea7b8240c179, type: 3}
      propertyPath: m_LocalPosition.x
      value: 1.02
      objectReference: {fileID: 0}
    - target: {fileID: 4087377801532572, guid: aa0b611ccd277dd4f9e8ea7b8240c179, type: 3}
      propertyPath: m_LocalPosition.y
      value: 0
      objectReference: {fileID: 0}
    - target: {fileID: 4087377801532572, guid: aa0b611ccd277dd4f9e8ea7b8240c179, type: 3}
      propertyPath: m_LocalPosition.z
      value: 0.09
      objectReference: {fileID: 0}
    - target: {fileID: 4087377801532572, guid: aa0b611ccd277dd4f9e8ea7b8240c179, type: 3}
      propertyPath: m_LocalRotation.w
      value: 1
      objectReference: {fileID: 0}
    - target: {fileID: 4087377801532572, guid: aa0b611ccd277dd4f9e8ea7b8240c179, type: 3}
      propertyPath: m_LocalRotation.x
      value: 0
      objectReference: {fileID: 0}
    - target: {fileID: 4087377801532572, guid: aa0b611ccd277dd4f9e8ea7b8240c179, type: 3}
      propertyPath: m_LocalRotation.y
      value: -0
      objectReference: {fileID: 0}
    - target: {fileID: 4087377801532572, guid: aa0b611ccd277dd4f9e8ea7b8240c179, type: 3}
      propertyPath: m_LocalRotation.z
      value: -0
      objectReference: {fileID: 0}
    m_RemovedComponents: []
  m_SourcePrefab: {fileID: 100100000, guid: aa0b611ccd277dd4f9e8ea7b8240c179, type: 3}
--- !u!1001 &978795230
PrefabInstance:
  m_ObjectHideFlags: 0
  serializedVersion: 2
  m_Modification:
    m_TransformParent: {fileID: 478332119}
    m_Modifications:
    - target: {fileID: 4537874617358942, guid: 2b909adf468138b44b82e38d400e126b, type: 3}
      propertyPath: m_RootOrder
      value: 9
      objectReference: {fileID: 0}
    - target: {fileID: 4537874617358942, guid: 2b909adf468138b44b82e38d400e126b, type: 3}
      propertyPath: m_LocalPosition.x
      value: 0.11
      objectReference: {fileID: 0}
    - target: {fileID: 4537874617358942, guid: 2b909adf468138b44b82e38d400e126b, type: 3}
      propertyPath: m_LocalPosition.y
      value: 1.097
      objectReference: {fileID: 0}
    - target: {fileID: 4537874617358942, guid: 2b909adf468138b44b82e38d400e126b, type: 3}
      propertyPath: m_LocalPosition.z
      value: 0.79
      objectReference: {fileID: 0}
    - target: {fileID: 4537874617358942, guid: 2b909adf468138b44b82e38d400e126b, type: 3}
      propertyPath: m_LocalRotation.w
      value: 0.07063357
      objectReference: {fileID: 0}
    - target: {fileID: 4537874617358942, guid: 2b909adf468138b44b82e38d400e126b, type: 3}
      propertyPath: m_LocalRotation.x
      value: -0
      objectReference: {fileID: 0}
    - target: {fileID: 4537874617358942, guid: 2b909adf468138b44b82e38d400e126b, type: 3}
      propertyPath: m_LocalRotation.y
      value: -0.9975024
      objectReference: {fileID: 0}
    - target: {fileID: 4537874617358942, guid: 2b909adf468138b44b82e38d400e126b, type: 3}
      propertyPath: m_LocalRotation.z
      value: -0
      objectReference: {fileID: 0}
    m_RemovedComponents: []
  m_SourcePrefab: {fileID: 100100000, guid: 2b909adf468138b44b82e38d400e126b, type: 3}
--- !u!1001 &981618348
PrefabInstance:
  m_ObjectHideFlags: 0
  serializedVersion: 2
  m_Modification:
    m_TransformParent: {fileID: 1803619602}
    m_Modifications:
    - target: {fileID: 4079619840179976, guid: cfe0dc650593d0b4b853a334bb023534, type: 3}
      propertyPath: m_RootOrder
      value: 6
      objectReference: {fileID: 0}
    - target: {fileID: 4079619840179976, guid: cfe0dc650593d0b4b853a334bb023534, type: 3}
      propertyPath: m_LocalPosition.x
      value: 0
      objectReference: {fileID: 0}
    - target: {fileID: 4079619840179976, guid: cfe0dc650593d0b4b853a334bb023534, type: 3}
      propertyPath: m_LocalPosition.y
      value: 0.7
      objectReference: {fileID: 0}
    - target: {fileID: 4079619840179976, guid: cfe0dc650593d0b4b853a334bb023534, type: 3}
      propertyPath: m_LocalPosition.z
      value: 0.7
      objectReference: {fileID: 0}
    - target: {fileID: 4079619840179976, guid: cfe0dc650593d0b4b853a334bb023534, type: 3}
      propertyPath: m_LocalRotation.w
      value: 1
      objectReference: {fileID: 0}
    - target: {fileID: 4079619840179976, guid: cfe0dc650593d0b4b853a334bb023534, type: 3}
      propertyPath: m_LocalRotation.x
      value: -0
      objectReference: {fileID: 0}
    - target: {fileID: 4079619840179976, guid: cfe0dc650593d0b4b853a334bb023534, type: 3}
      propertyPath: m_LocalRotation.y
      value: -0
      objectReference: {fileID: 0}
    - target: {fileID: 4079619840179976, guid: cfe0dc650593d0b4b853a334bb023534, type: 3}
      propertyPath: m_LocalRotation.z
      value: -0
      objectReference: {fileID: 0}
    m_RemovedComponents: []
  m_SourcePrefab: {fileID: 100100000, guid: cfe0dc650593d0b4b853a334bb023534, type: 3}
--- !u!4 &1114128010 stripped
Transform:
  m_CorrespondingSourceObject: {fileID: 4633577083202358, guid: cf80b8a50d670a242a669dd5146c189a, type: 3}
  m_PrefabInstance: {fileID: 571460679}
  m_PrefabAsset: {fileID: 0}
--- !u!4 &1128469263 stripped
Transform:
  m_CorrespondingSourceObject: {fileID: 4047931590289708, guid: 4c156eaa475a7c44aa3c826450245d6a, type: 3}
  m_PrefabInstance: {fileID: 497639796}
  m_PrefabAsset: {fileID: 0}
--- !u!1001 &1152947324
PrefabInstance:
  m_ObjectHideFlags: 0
  serializedVersion: 2
  m_Modification:
    m_TransformParent: {fileID: 417816225}
    m_Modifications:
    - target: {fileID: 4011833005115324, guid: 59fd4762fc827164bb3eadbefb882946, type: 3}
      propertyPath: m_RootOrder
      value: 0
      objectReference: {fileID: 0}
    - target: {fileID: 4011833005115324, guid: 59fd4762fc827164bb3eadbefb882946, type: 3}
      propertyPath: m_LocalPosition.x
      value: -0.17
      objectReference: {fileID: 0}
    - target: {fileID: 4011833005115324, guid: 59fd4762fc827164bb3eadbefb882946, type: 3}
      propertyPath: m_LocalPosition.y
      value: 0.56
      objectReference: {fileID: 0}
    - target: {fileID: 4011833005115324, guid: 59fd4762fc827164bb3eadbefb882946, type: 3}
      propertyPath: m_LocalPosition.z
      value: -2.06
      objectReference: {fileID: 0}
    - target: {fileID: 4011833005115324, guid: 59fd4762fc827164bb3eadbefb882946, type: 3}
      propertyPath: m_LocalRotation.w
      value: 0.83799696
      objectReference: {fileID: 0}
    - target: {fileID: 4011833005115324, guid: 59fd4762fc827164bb3eadbefb882946, type: 3}
      propertyPath: m_LocalRotation.x
      value: -0.0018136248
      objectReference: {fileID: 0}
    - target: {fileID: 4011833005115324, guid: 59fd4762fc827164bb3eadbefb882946, type: 3}
      propertyPath: m_LocalRotation.y
      value: -0.4752763
      objectReference: {fileID: 0}
    - target: {fileID: 4011833005115324, guid: 59fd4762fc827164bb3eadbefb882946, type: 3}
      propertyPath: m_LocalRotation.z
      value: -0.26808643
      objectReference: {fileID: 0}
    - target: {fileID: 4011833005115324, guid: 59fd4762fc827164bb3eadbefb882946, type: 3}
      propertyPath: m_LocalEulerAnglesHint.x
      value: -14.944
      objectReference: {fileID: 0}
    - target: {fileID: 4011833005115324, guid: 59fd4762fc827164bb3eadbefb882946, type: 3}
      propertyPath: m_LocalEulerAnglesHint.y
      value: -55.430004
      objectReference: {fileID: 0}
    - target: {fileID: 4011833005115324, guid: 59fd4762fc827164bb3eadbefb882946, type: 3}
      propertyPath: m_LocalEulerAnglesHint.z
      value: -27.597002
      objectReference: {fileID: 0}
    m_RemovedComponents: []
  m_SourcePrefab: {fileID: 100100000, guid: 59fd4762fc827164bb3eadbefb882946, type: 3}
--- !u!4 &1190532094 stripped
Transform:
  m_CorrespondingSourceObject: {fileID: 4643957979841032, guid: 5199d6ab356967f41bd64316c9e60daf, type: 3}
  m_PrefabInstance: {fileID: 508614843}
  m_PrefabAsset: {fileID: 0}
--- !u!1001 &1192845205
PrefabInstance:
  m_ObjectHideFlags: 0
  serializedVersion: 2
  m_Modification:
    m_TransformParent: {fileID: 417816225}
    m_Modifications:
    - target: {fileID: 4342890921476034, guid: dda9a30259f7907418f21d3f5cf7bf15, type: 3}
      propertyPath: m_RootOrder
      value: 8
      objectReference: {fileID: 0}
    - target: {fileID: 4342890921476034, guid: dda9a30259f7907418f21d3f5cf7bf15, type: 3}
      propertyPath: m_LocalPosition.x
      value: -0.13033819
      objectReference: {fileID: 0}
    - target: {fileID: 4342890921476034, guid: dda9a30259f7907418f21d3f5cf7bf15, type: 3}
      propertyPath: m_LocalPosition.y
      value: -0.18
      objectReference: {fileID: 0}
    - target: {fileID: 4342890921476034, guid: dda9a30259f7907418f21d3f5cf7bf15, type: 3}
      propertyPath: m_LocalPosition.z
      value: 1.67
      objectReference: {fileID: 0}
    - target: {fileID: 4342890921476034, guid: dda9a30259f7907418f21d3f5cf7bf15, type: 3}
      propertyPath: m_LocalRotation.w
      value: 0.98646295
      objectReference: {fileID: 0}
    - target: {fileID: 4342890921476034, guid: dda9a30259f7907418f21d3f5cf7bf15, type: 3}
      propertyPath: m_LocalRotation.x
      value: 9.313227e-10
      objectReference: {fileID: 0}
    - target: {fileID: 4342890921476034, guid: dda9a30259f7907418f21d3f5cf7bf15, type: 3}
      propertyPath: m_LocalRotation.y
      value: 0.16398443
      objectReference: {fileID: 0}
    - target: {fileID: 4342890921476034, guid: dda9a30259f7907418f21d3f5cf7bf15, type: 3}
      propertyPath: m_LocalRotation.z
      value: 0.000000014901163
      objectReference: {fileID: 0}
    m_RemovedComponents: []
  m_SourcePrefab: {fileID: 100100000, guid: dda9a30259f7907418f21d3f5cf7bf15, type: 3}
--- !u!1 &1251674438
GameObject:
  m_ObjectHideFlags: 0
  m_CorrespondingSourceObject: {fileID: 0}
  m_PrefabInstance: {fileID: 0}
  m_PrefabAsset: {fileID: 0}
  serializedVersion: 6
  m_Component:
  - component: {fileID: 1251674440}
  - component: {fileID: 1251674439}
  m_Layer: 0
  m_Name: Directional light
  m_TagString: Untagged
  m_Icon: {fileID: 0}
  m_NavMeshLayer: 0
  m_StaticEditorFlags: 0
  m_IsActive: 1
--- !u!108 &1251674439
Light:
  m_ObjectHideFlags: 0
  m_CorrespondingSourceObject: {fileID: 0}
  m_PrefabInstance: {fileID: 0}
  m_PrefabAsset: {fileID: 0}
  m_GameObject: {fileID: 1251674438}
  m_Enabled: 1
  serializedVersion: 10
  m_Type: 1
  m_Shape: 0
  m_Color: {r: 1, g: 1, b: 1, a: 1}
  m_Intensity: 1
  m_Range: 10
  m_SpotAngle: 30
  m_InnerSpotAngle: 21.80208
  m_CookieSize: 10
  m_Shadows:
    m_Type: 0
    m_Resolution: -1
    m_CustomResolution: -1
    m_Strength: 1
    m_Bias: 0.05
    m_NormalBias: 0.4
    m_NearPlane: 0.2
    m_CullingMatrixOverride:
      e00: 1
      e01: 0
      e02: 0
      e03: 0
      e10: 0
      e11: 1
      e12: 0
      e13: 0
      e20: 0
      e21: 0
      e22: 1
      e23: 0
      e30: 0
      e31: 0
      e32: 0
      e33: 1
    m_UseCullingMatrixOverride: 0
  m_Cookie: {fileID: 0}
  m_DrawHalo: 0
  m_Flare: {fileID: 0}
  m_RenderMode: 0
  m_CullingMask:
    serializedVersion: 2
    m_Bits: 4294967295
  m_RenderingLayerMask: 1
  m_Lightmapping: 4
  m_LightShadowCasterMode: 0
  m_AreaSize: {x: 1, y: 1}
  m_BounceIntensity: 1
  m_ColorTemperature: 6570
  m_UseColorTemperature: 0
  m_BoundingSphereOverride: {x: 0, y: 0, z: 0, w: 0}
  m_UseBoundingSphereOverride: 0
  m_UseViewFrustumForShadowCasterCull: 1
  m_ShadowRadius: 0
  m_ShadowAngle: 0
--- !u!4 &1251674440
Transform:
  m_ObjectHideFlags: 0
  m_CorrespondingSourceObject: {fileID: 0}
  m_PrefabInstance: {fileID: 0}
  m_PrefabAsset: {fileID: 0}
  m_GameObject: {fileID: 1251674438}
  m_LocalRotation: {x: 0.05263801, y: -0.8111264, z: 0.2696132, w: 0.5163448}
  m_LocalPosition: {x: 0.8108438, y: 3.6294389, z: 0}
  m_LocalScale: {x: 1, y: 1, z: 1}
  m_ConstrainProportionsScale: 0
  m_Children: []
  m_Father: {fileID: 0}
  m_RootOrder: 4
  m_LocalEulerAnglesHint: {x: 29.455002, y: -111.66, z: 12.808001}
--- !u!1001 &1315077567
PrefabInstance:
  m_ObjectHideFlags: 0
  serializedVersion: 2
  m_Modification:
    m_TransformParent: {fileID: 0}
    m_Modifications:
    - target: {fileID: 4819298746767142, guid: a45c51da10cf1a84abc6a99c06951e3f, type: 3}
      propertyPath: m_RootOrder
      value: 6
      objectReference: {fileID: 0}
    - target: {fileID: 4819298746767142, guid: a45c51da10cf1a84abc6a99c06951e3f, type: 3}
      propertyPath: m_LocalPosition.x
      value: 3.65
      objectReference: {fileID: 0}
    - target: {fileID: 4819298746767142, guid: a45c51da10cf1a84abc6a99c06951e3f, type: 3}
      propertyPath: m_LocalPosition.y
      value: 2.93
      objectReference: {fileID: 0}
    - target: {fileID: 4819298746767142, guid: a45c51da10cf1a84abc6a99c06951e3f, type: 3}
      propertyPath: m_LocalPosition.z
      value: 3.35
      objectReference: {fileID: 0}
    - target: {fileID: 4819298746767142, guid: a45c51da10cf1a84abc6a99c06951e3f, type: 3}
      propertyPath: m_LocalRotation.w
      value: 0.7071068
      objectReference: {fileID: 0}
    - target: {fileID: 4819298746767142, guid: a45c51da10cf1a84abc6a99c06951e3f, type: 3}
      propertyPath: m_LocalRotation.x
      value: -0.7071068
      objectReference: {fileID: 0}
    - target: {fileID: 4819298746767142, guid: a45c51da10cf1a84abc6a99c06951e3f, type: 3}
      propertyPath: m_LocalRotation.y
      value: 0
      objectReference: {fileID: 0}
    - target: {fileID: 4819298746767142, guid: a45c51da10cf1a84abc6a99c06951e3f, type: 3}
      propertyPath: m_LocalRotation.z
      value: 0
      objectReference: {fileID: 0}
    m_RemovedComponents: []
  m_SourcePrefab: {fileID: 100100000, guid: a45c51da10cf1a84abc6a99c06951e3f, type: 3}
--- !u!4 &1332656889 stripped
Transform:
  m_CorrespondingSourceObject: {fileID: 4262163473691232, guid: 9568f15e6607c70469b5b2657c7cd0b3, type: 3}
  m_PrefabInstance: {fileID: 312106497}
  m_PrefabAsset: {fileID: 0}
--- !u!1 &1421530395
GameObject:
  m_ObjectHideFlags: 0
  m_CorrespondingSourceObject: {fileID: 0}
  m_PrefabInstance: {fileID: 0}
  m_PrefabAsset: {fileID: 0}
  serializedVersion: 6
  m_Component:
  - component: {fileID: 1421530400}
  - component: {fileID: 1421530399}
  - component: {fileID: 1421530397}
  - component: {fileID: 1421530396}
  m_Layer: 0
  m_Name: Main Camera
  m_TagString: MainCamera
  m_Icon: {fileID: 0}
  m_NavMeshLayer: 0
  m_StaticEditorFlags: 0
  m_IsActive: 1
--- !u!81 &1421530396
AudioListener:
  m_ObjectHideFlags: 0
  m_CorrespondingSourceObject: {fileID: 0}
  m_PrefabInstance: {fileID: 0}
  m_PrefabAsset: {fileID: 0}
  m_GameObject: {fileID: 1421530395}
  m_Enabled: 1
--- !u!124 &1421530397
Behaviour:
  m_ObjectHideFlags: 0
  m_CorrespondingSourceObject: {fileID: 0}
  m_PrefabInstance: {fileID: 0}
  m_PrefabAsset: {fileID: 0}
  m_GameObject: {fileID: 1421530395}
  m_Enabled: 1
--- !u!20 &1421530399
Camera:
  m_ObjectHideFlags: 0
  m_CorrespondingSourceObject: {fileID: 0}
  m_PrefabInstance: {fileID: 0}
  m_PrefabAsset: {fileID: 0}
  m_GameObject: {fileID: 1421530395}
  m_Enabled: 1
  serializedVersion: 2
  m_ClearFlags: 1
  m_BackGroundColor: {r: 0.19215687, g: 0.3019608, b: 0.4745098, a: 0}
  m_projectionMatrixMode: 1
  m_GateFitMode: 2
  m_FOVAxisMode: 0
  m_SensorSize: {x: 36, y: 24}
  m_LensShift: {x: 0, y: 0}
  m_FocalLength: 50
  m_NormalizedViewPortRect:
    serializedVersion: 2
    x: 0
    y: 0
    width: 1
    height: 1
  near clip plane: 0.3
  far clip plane: 1000
  field of view: 60
  orthographic: 0
  orthographic size: 5
  m_Depth: -1
  m_CullingMask:
    serializedVersion: 2
    m_Bits: 4294967295
  m_RenderingPath: -1
  m_TargetTexture: {fileID: 0}
  m_TargetDisplay: 0
  m_TargetEye: 3
  m_HDR: 0
  m_AllowMSAA: 1
  m_AllowDynamicResolution: 0
  m_ForceIntoRT: 0
  m_OcclusionCulling: 1
  m_StereoConvergence: 10
  m_StereoSeparation: 0.022
--- !u!4 &1421530400
Transform:
  m_ObjectHideFlags: 0
  m_CorrespondingSourceObject: {fileID: 0}
  m_PrefabInstance: {fileID: 0}
  m_PrefabAsset: {fileID: 0}
  m_GameObject: {fileID: 1421530395}
  m_LocalRotation: {x: 0.052771844, y: -0.7051348, z: 0.052771844, w: 0.7051348}
  m_LocalPosition: {x: 6.47, y: 3.92, z: 0.2}
  m_LocalScale: {x: 1, y: 1, z: 1}
  m_ConstrainProportionsScale: 0
  m_Children: []
  m_Father: {fileID: 0}
  m_RootOrder: 3
  m_LocalEulerAnglesHint: {x: 8.56, y: -90.00001, z: 0}
--- !u!1001 &1440918647
PrefabInstance:
  m_ObjectHideFlags: 0
  serializedVersion: 2
  m_Modification:
    m_TransformParent: {fileID: 417816225}
    m_Modifications:
    - target: {fileID: 4031330686921214, guid: 8e96a5cadf0c8f948b8c09bc6772e39e, type: 3}
      propertyPath: m_RootOrder
      value: 7
      objectReference: {fileID: 0}
    - target: {fileID: 4031330686921214, guid: 8e96a5cadf0c8f948b8c09bc6772e39e, type: 3}
      propertyPath: m_LocalPosition.x
      value: 0.07
      objectReference: {fileID: 0}
    - target: {fileID: 4031330686921214, guid: 8e96a5cadf0c8f948b8c09bc6772e39e, type: 3}
      propertyPath: m_LocalPosition.y
      value: 0.54
      objectReference: {fileID: 0}
    - target: {fileID: 4031330686921214, guid: 8e96a5cadf0c8f948b8c09bc6772e39e, type: 3}
      propertyPath: m_LocalPosition.z
      value: 0.08
      objectReference: {fileID: 0}
    - target: {fileID: 4031330686921214, guid: 8e96a5cadf0c8f948b8c09bc6772e39e, type: 3}
      propertyPath: m_LocalRotation.w
      value: 0.9832851
      objectReference: {fileID: 0}
    - target: {fileID: 4031330686921214, guid: 8e96a5cadf0c8f948b8c09bc6772e39e, type: 3}
      propertyPath: m_LocalRotation.x
      value: -0.062127825
      objectReference: {fileID: 0}
    - target: {fileID: 4031330686921214, guid: 8e96a5cadf0c8f948b8c09bc6772e39e, type: 3}
      propertyPath: m_LocalRotation.y
      value: 0.0107920775
      objectReference: {fileID: 0}
    - target: {fileID: 4031330686921214, guid: 8e96a5cadf0c8f948b8c09bc6772e39e, type: 3}
      propertyPath: m_LocalRotation.z
      value: -0.17080404
      objectReference: {fileID: 0}
    m_RemovedComponents: []
  m_SourcePrefab: {fileID: 100100000, guid: 8e96a5cadf0c8f948b8c09bc6772e39e, type: 3}
--- !u!1001 &1475377729
PrefabInstance:
  m_ObjectHideFlags: 0
  serializedVersion: 2
  m_Modification:
    m_TransformParent: {fileID: 417816225}
    m_Modifications:
    - target: {fileID: 4429121422953396, guid: 0f6fbf6ba5b56aa4ba01adc51ab77ce6, type: 3}
      propertyPath: m_RootOrder
      value: 6
      objectReference: {fileID: 0}
    - target: {fileID: 4429121422953396, guid: 0f6fbf6ba5b56aa4ba01adc51ab77ce6, type: 3}
      propertyPath: m_LocalPosition.x
      value: -0.08
      objectReference: {fileID: 0}
    - target: {fileID: 4429121422953396, guid: 0f6fbf6ba5b56aa4ba01adc51ab77ce6, type: 3}
      propertyPath: m_LocalPosition.y
      value: -0.94
      objectReference: {fileID: 0}
    - target: {fileID: 4429121422953396, guid: 0f6fbf6ba5b56aa4ba01adc51ab77ce6, type: 3}
      propertyPath: m_LocalPosition.z
      value: -0.02
      objectReference: {fileID: 0}
    - target: {fileID: 4429121422953396, guid: 0f6fbf6ba5b56aa4ba01adc51ab77ce6, type: 3}
      propertyPath: m_LocalRotation.w
      value: 0.6630786
      objectReference: {fileID: 0}
    - target: {fileID: 4429121422953396, guid: 0f6fbf6ba5b56aa4ba01adc51ab77ce6, type: 3}
      propertyPath: m_LocalRotation.x
      value: -0.10560158
      objectReference: {fileID: 0}
    - target: {fileID: 4429121422953396, guid: 0f6fbf6ba5b56aa4ba01adc51ab77ce6, type: 3}
      propertyPath: m_LocalRotation.y
      value: 0.73544663
      objectReference: {fileID: 0}
    - target: {fileID: 4429121422953396, guid: 0f6fbf6ba5b56aa4ba01adc51ab77ce6, type: 3}
      propertyPath: m_LocalRotation.z
      value: 0.091068015
      objectReference: {fileID: 0}
    m_RemovedComponents: []
  m_SourcePrefab: {fileID: 100100000, guid: 0f6fbf6ba5b56aa4ba01adc51ab77ce6, type: 3}
--- !u!1001 &1513691651
PrefabInstance:
  m_ObjectHideFlags: 0
  serializedVersion: 2
  m_Modification:
    m_TransformParent: {fileID: 1803619602}
    m_Modifications:
    - target: {fileID: 4561323042937306, guid: 1e8a24275f78368469eb95764e51b756, type: 3}
      propertyPath: m_RootOrder
      value: 1
      objectReference: {fileID: 0}
    - target: {fileID: 4561323042937306, guid: 1e8a24275f78368469eb95764e51b756, type: 3}
      propertyPath: m_LocalPosition.x
      value: 0
      objectReference: {fileID: 0}
    - target: {fileID: 4561323042937306, guid: 1e8a24275f78368469eb95764e51b756, type: 3}
      propertyPath: m_LocalPosition.y
      value: 0
      objectReference: {fileID: 0}
    - target: {fileID: 4561323042937306, guid: 1e8a24275f78368469eb95764e51b756, type: 3}
      propertyPath: m_LocalPosition.z
      value: -1.4
      objectReference: {fileID: 0}
    - target: {fileID: 4561323042937306, guid: 1e8a24275f78368469eb95764e51b756, type: 3}
      propertyPath: m_LocalRotation.w
      value: 1
      objectReference: {fileID: 0}
    - target: {fileID: 4561323042937306, guid: 1e8a24275f78368469eb95764e51b756, type: 3}
      propertyPath: m_LocalRotation.x
      value: -0
      objectReference: {fileID: 0}
    - target: {fileID: 4561323042937306, guid: 1e8a24275f78368469eb95764e51b756, type: 3}
      propertyPath: m_LocalRotation.y
      value: -0
      objectReference: {fileID: 0}
    - target: {fileID: 4561323042937306, guid: 1e8a24275f78368469eb95764e51b756, type: 3}
      propertyPath: m_LocalRotation.z
      value: -0
      objectReference: {fileID: 0}
    m_RemovedComponents: []
  m_SourcePrefab: {fileID: 100100000, guid: 1e8a24275f78368469eb95764e51b756, type: 3}
--- !u!1001 &1543369651
PrefabInstance:
  m_ObjectHideFlags: 0
  serializedVersion: 2
  m_Modification:
    m_TransformParent: {fileID: 478332119}
    m_Modifications:
    - target: {fileID: 4088184373543118, guid: 409010852d1134147862865a8889b834, type: 3}
      propertyPath: m_RootOrder
      value: 12
      objectReference: {fileID: 0}
    - target: {fileID: 4088184373543118, guid: 409010852d1134147862865a8889b834, type: 3}
      propertyPath: m_LocalPosition.x
      value: 0.61
      objectReference: {fileID: 0}
    - target: {fileID: 4088184373543118, guid: 409010852d1134147862865a8889b834, type: 3}
      propertyPath: m_LocalPosition.y
      value: 0.918
      objectReference: {fileID: 0}
    - target: {fileID: 4088184373543118, guid: 409010852d1134147862865a8889b834, type: 3}
      propertyPath: m_LocalPosition.z
      value: -2.12
      objectReference: {fileID: 0}
    - target: {fileID: 4088184373543118, guid: 409010852d1134147862865a8889b834, type: 3}
      propertyPath: m_LocalRotation.w
      value: 0.97357565
      objectReference: {fileID: 0}
    - target: {fileID: 4088184373543118, guid: 409010852d1134147862865a8889b834, type: 3}
      propertyPath: m_LocalRotation.x
      value: -0
      objectReference: {fileID: 0}
    - target: {fileID: 4088184373543118, guid: 409010852d1134147862865a8889b834, type: 3}
      propertyPath: m_LocalRotation.y
      value: -0.2283647
      objectReference: {fileID: 0}
    - target: {fileID: 4088184373543118, guid: 409010852d1134147862865a8889b834, type: 3}
      propertyPath: m_LocalRotation.z
      value: -0
      objectReference: {fileID: 0}
    m_RemovedComponents: []
  m_SourcePrefab: {fileID: 100100000, guid: 409010852d1134147862865a8889b834, type: 3}
--- !u!1001 &1564127730
PrefabInstance:
  m_ObjectHideFlags: 0
  serializedVersion: 2
  m_Modification:
    m_TransformParent: {fileID: 478332119}
    m_Modifications:
    - target: {fileID: 4390693999286280, guid: 64aab82ac059b3b4e8c99af9d3bf4a26, type: 3}
      propertyPath: m_RootOrder
      value: 7
      objectReference: {fileID: 0}
    - target: {fileID: 4390693999286280, guid: 64aab82ac059b3b4e8c99af9d3bf4a26, type: 3}
      propertyPath: m_LocalPosition.x
      value: 0.28
      objectReference: {fileID: 0}
    - target: {fileID: 4390693999286280, guid: 64aab82ac059b3b4e8c99af9d3bf4a26, type: 3}
      propertyPath: m_LocalPosition.y
      value: 0.887
      objectReference: {fileID: 0}
    - target: {fileID: 4390693999286280, guid: 64aab82ac059b3b4e8c99af9d3bf4a26, type: 3}
      propertyPath: m_LocalPosition.z
      value: -0.64
      objectReference: {fileID: 0}
    - target: {fileID: 4390693999286280, guid: 64aab82ac059b3b4e8c99af9d3bf4a26, type: 3}
      propertyPath: m_LocalRotation.w
      value: 0.00000058114523
      objectReference: {fileID: 0}
    - target: {fileID: 4390693999286280, guid: 64aab82ac059b3b4e8c99af9d3bf4a26, type: 3}
      propertyPath: m_LocalRotation.x
      value: -0
      objectReference: {fileID: 0}
    - target: {fileID: 4390693999286280, guid: 64aab82ac059b3b4e8c99af9d3bf4a26, type: 3}
      propertyPath: m_LocalRotation.y
      value: -1
      objectReference: {fileID: 0}
    - target: {fileID: 4390693999286280, guid: 64aab82ac059b3b4e8c99af9d3bf4a26, type: 3}
      propertyPath: m_LocalRotation.z
      value: -0
      objectReference: {fileID: 0}
    m_RemovedComponents: []
  m_SourcePrefab: {fileID: 100100000, guid: 64aab82ac059b3b4e8c99af9d3bf4a26, type: 3}
--- !u!4 &1564516571 stripped
Transform:
  m_CorrespondingSourceObject: {fileID: 4734364914070202, guid: 908e3427a87e203428312e7911a4c50c, type: 3}
  m_PrefabInstance: {fileID: 2057858478}
  m_PrefabAsset: {fileID: 0}
--- !u!1001 &1575548834
PrefabInstance:
  m_ObjectHideFlags: 0
  serializedVersion: 2
  m_Modification:
    m_TransformParent: {fileID: 417816225}
    m_Modifications:
    - target: {fileID: 4420955183031778, guid: 6acc3db960c36484f8e89c31d7a691d8, type: 3}
      propertyPath: m_RootOrder
      value: 3
      objectReference: {fileID: 0}
    - target: {fileID: 4420955183031778, guid: 6acc3db960c36484f8e89c31d7a691d8, type: 3}
      propertyPath: m_LocalPosition.x
      value: -0.059
      objectReference: {fileID: 0}
    - target: {fileID: 4420955183031778, guid: 6acc3db960c36484f8e89c31d7a691d8, type: 3}
      propertyPath: m_LocalPosition.y
      value: 0.53
      objectReference: {fileID: 0}
    - target: {fileID: 4420955183031778, guid: 6acc3db960c36484f8e89c31d7a691d8, type: 3}
      propertyPath: m_LocalPosition.z
      value: 2.34
      objectReference: {fileID: 0}
    - target: {fileID: 4420955183031778, guid: 6acc3db960c36484f8e89c31d7a691d8, type: 3}
      propertyPath: m_LocalRotation.w
      value: 0.018461324
      objectReference: {fileID: 0}
    - target: {fileID: 4420955183031778, guid: 6acc3db960c36484f8e89c31d7a691d8, type: 3}
      propertyPath: m_LocalRotation.x
      value: 0.2723406
      objectReference: {fileID: 0}
    - target: {fileID: 4420955183031778, guid: 6acc3db960c36484f8e89c31d7a691d8, type: 3}
      propertyPath: m_LocalRotation.y
      value: 0.9580517
      objectReference: {fileID: 0}
    - target: {fileID: 4420955183031778, guid: 6acc3db960c36484f8e89c31d7a691d8, type: 3}
      propertyPath: m_LocalRotation.z
      value: -0.087331586
      objectReference: {fileID: 0}
    - target: {fileID: 4420955183031778, guid: 6acc3db960c36484f8e89c31d7a691d8, type: 3}
      propertyPath: m_LocalEulerAnglesHint.x
      value: 10.218
      objectReference: {fileID: 0}
    - target: {fileID: 4420955183031778, guid: 6acc3db960c36484f8e89c31d7a691d8, type: 3}
      propertyPath: m_LocalEulerAnglesHint.y
      value: 180.70999
      objectReference: {fileID: 0}
    - target: {fileID: 4420955183031778, guid: 6acc3db960c36484f8e89c31d7a691d8, type: 3}
      propertyPath: m_LocalEulerAnglesHint.z
      value: 31.801
      objectReference: {fileID: 0}
    m_RemovedComponents: []
  m_SourcePrefab: {fileID: 100100000, guid: 6acc3db960c36484f8e89c31d7a691d8, type: 3}
--- !u!4 &1610531269 stripped
Transform:
  m_CorrespondingSourceObject: {fileID: 4031330686921214, guid: 8e96a5cadf0c8f948b8c09bc6772e39e, type: 3}
  m_PrefabInstance: {fileID: 1440918647}
  m_PrefabAsset: {fileID: 0}
--- !u!4 &1668006252 stripped
Transform:
  m_CorrespondingSourceObject: {fileID: 4011833005115324, guid: 59fd4762fc827164bb3eadbefb882946, type: 3}
  m_PrefabInstance: {fileID: 1152947324}
  m_PrefabAsset: {fileID: 0}
--- !u!4 &1677603882 stripped
Transform:
  m_CorrespondingSourceObject: {fileID: 4972849319944596, guid: bb5b02b10704e8e4786233513a233a0a, type: 3}
  m_PrefabInstance: {fileID: 1736780820}
  m_PrefabAsset: {fileID: 0}
--- !u!4 &1692529971 stripped
Transform:
  m_CorrespondingSourceObject: {fileID: 4342890921476034, guid: dda9a30259f7907418f21d3f5cf7bf15, type: 3}
  m_PrefabInstance: {fileID: 1192845205}
  m_PrefabAsset: {fileID: 0}
--- !u!4 &1700124463 stripped
Transform:
  m_CorrespondingSourceObject: {fileID: 4079619840179976, guid: cfe0dc650593d0b4b853a334bb023534, type: 3}
  m_PrefabInstance: {fileID: 981618348}
  m_PrefabAsset: {fileID: 0}
--- !u!4 &1724814078 stripped
Transform:
  m_CorrespondingSourceObject: {fileID: 4802539185917164, guid: 4eca7a8ef879cfb41b294a8c0d69ea58, type: 3}
  m_PrefabInstance: {fileID: 252214166}
  m_PrefabAsset: {fileID: 0}
--- !u!1001 &1736780820
PrefabInstance:
  m_ObjectHideFlags: 0
  serializedVersion: 2
  m_Modification:
    m_TransformParent: {fileID: 478332119}
    m_Modifications:
    - target: {fileID: 1311538566985696, guid: bb5b02b10704e8e4786233513a233a0a, type: 3}
      propertyPath: m_Name
      value: NoteSingleSilver
      objectReference: {fileID: 0}
    - target: {fileID: 4972849319944596, guid: bb5b02b10704e8e4786233513a233a0a, type: 3}
      propertyPath: m_RootOrder
      value: 10
      objectReference: {fileID: 0}
    - target: {fileID: 4972849319944596, guid: bb5b02b10704e8e4786233513a233a0a, type: 3}
      propertyPath: m_LocalPosition.x
      value: -0.24
      objectReference: {fileID: 0}
    - target: {fileID: 4972849319944596, guid: bb5b02b10704e8e4786233513a233a0a, type: 3}
      propertyPath: m_LocalPosition.y
      value: 1.097
      objectReference: {fileID: 0}
    - target: {fileID: 4972849319944596, guid: bb5b02b10704e8e4786233513a233a0a, type: 3}
      propertyPath: m_LocalPosition.z
      value: 1.34
      objectReference: {fileID: 0}
    - target: {fileID: 4972849319944596, guid: bb5b02b10704e8e4786233513a233a0a, type: 3}
      propertyPath: m_LocalRotation.w
      value: 0.07063357
      objectReference: {fileID: 0}
    - target: {fileID: 4972849319944596, guid: bb5b02b10704e8e4786233513a233a0a, type: 3}
      propertyPath: m_LocalRotation.x
      value: -0
      objectReference: {fileID: 0}
    - target: {fileID: 4972849319944596, guid: bb5b02b10704e8e4786233513a233a0a, type: 3}
      propertyPath: m_LocalRotation.y
      value: -0.9975024
      objectReference: {fileID: 0}
    - target: {fileID: 4972849319944596, guid: bb5b02b10704e8e4786233513a233a0a, type: 3}
      propertyPath: m_LocalRotation.z
      value: -0
      objectReference: {fileID: 0}
    m_RemovedComponents: []
  m_SourcePrefab: {fileID: 100100000, guid: bb5b02b10704e8e4786233513a233a0a, type: 3}
--- !u!4 &1775298805 stripped
Transform:
  m_CorrespondingSourceObject: {fileID: 4537874617358942, guid: 2b909adf468138b44b82e38d400e126b, type: 3}
  m_PrefabInstance: {fileID: 978795230}
  m_PrefabAsset: {fileID: 0}
--- !u!4 &1788480068 stripped
Transform:
  m_CorrespondingSourceObject: {fileID: 4420955183031778, guid: 6acc3db960c36484f8e89c31d7a691d8, type: 3}
  m_PrefabInstance: {fileID: 1575548834}
  m_PrefabAsset: {fileID: 0}
--- !u!1 &1803619601
GameObject:
  m_ObjectHideFlags: 0
  m_CorrespondingSourceObject: {fileID: 100000, guid: 2fa528ee8e91e55468e2fa9820a7064e, type: 3}
  m_PrefabInstance: {fileID: 0}
  m_PrefabAsset: {fileID: 0}
  serializedVersion: 6
  m_Component:
  - component: {fileID: 1803619602}
  m_Layer: 0
  m_Name: CollectiblesSet2
  m_TagString: Untagged
  m_Icon: {fileID: 0}
  m_NavMeshLayer: 0
  m_StaticEditorFlags: 0
  m_IsActive: 1
--- !u!4 &1803619602
Transform:
  m_ObjectHideFlags: 0
  m_CorrespondingSourceObject: {fileID: 400000, guid: 2fa528ee8e91e55468e2fa9820a7064e, type: 3}
  m_PrefabInstance: {fileID: 0}
  m_PrefabAsset: {fileID: 0}
  m_GameObject: {fileID: 1803619601}
  m_LocalRotation: {x: 0, y: 0, z: 0, w: 1}
  m_LocalPosition: {x: 0, y: 2.75, z: 0}
  m_LocalScale: {x: 1, y: 1, z: 1}
  m_ConstrainProportionsScale: 0
  m_Children:
  - {fileID: 46611559}
  - {fileID: 834982101}
  - {fileID: 844840033}
  - {fileID: 2038196423}
  - {fileID: 568482385}
  - {fileID: 1114128010}
  - {fileID: 1700124463}
  - {fileID: 1564516571}
  m_Father: {fileID: 0}
  m_RootOrder: 1
  m_LocalEulerAnglesHint: {x: 0, y: 0, z: 0}
--- !u!4 &1908261474 stripped
Transform:
  m_CorrespondingSourceObject: {fileID: 4122938131327598, guid: a37573ad5d3fb7a47997aadbf0976202, type: 3}
  m_PrefabInstance: {fileID: 67828754}
  m_PrefabAsset: {fileID: 0}
--- !u!4 &1927244234 stripped
Transform:
  m_CorrespondingSourceObject: {fileID: 4997397545812890, guid: cdc64358fb600b94c83082531a9b43af, type: 3}
  m_PrefabInstance: {fileID: 278104763}
  m_PrefabAsset: {fileID: 0}
--- !u!4 &1941232097 stripped
Transform:
  m_CorrespondingSourceObject: {fileID: 4715476648483898, guid: 59c7078d344dfe94f97e849fe4f0dce0, type: 3}
  m_PrefabInstance: {fileID: 97015750}
  m_PrefabAsset: {fileID: 0}
--- !u!4 &2038196423 stripped
Transform:
  m_CorrespondingSourceObject: {fileID: 4089657239345218, guid: 30b32b7e817116548af38dbf12fb57ce, type: 3}
  m_PrefabInstance: {fileID: 785862457}
  m_PrefabAsset: {fileID: 0}
--- !u!1001 &2057858478
PrefabInstance:
  m_ObjectHideFlags: 0
  serializedVersion: 2
  m_Modification:
    m_TransformParent: {fileID: 1803619602}
    m_Modifications:
    - target: {fileID: 4734364914070202, guid: 908e3427a87e203428312e7911a4c50c, type: 3}
      propertyPath: m_RootOrder
      value: 7
      objectReference: {fileID: 0}
    - target: {fileID: 4734364914070202, guid: 908e3427a87e203428312e7911a4c50c, type: 3}
      propertyPath: m_LocalPosition.x
      value: 0
      objectReference: {fileID: 0}
    - target: {fileID: 4734364914070202, guid: 908e3427a87e203428312e7911a4c50c, type: 3}
      propertyPath: m_LocalPosition.y
      value: 0.7
      objectReference: {fileID: 0}
    - target: {fileID: 4734364914070202, guid: 908e3427a87e203428312e7911a4c50c, type: 3}
      propertyPath: m_LocalPosition.z
      value: 0
      objectReference: {fileID: 0}
    - target: {fileID: 4734364914070202, guid: 908e3427a87e203428312e7911a4c50c, type: 3}
      propertyPath: m_LocalRotation.w
      value: 1
      objectReference: {fileID: 0}
    - target: {fileID: 4734364914070202, guid: 908e3427a87e203428312e7911a4c50c, type: 3}
      propertyPath: m_LocalRotation.x
      value: -0
      objectReference: {fileID: 0}
    - target: {fileID: 4734364914070202, guid: 908e3427a87e203428312e7911a4c50c, type: 3}
      propertyPath: m_LocalRotation.y
      value: -0
      objectReference: {fileID: 0}
    - target: {fileID: 4734364914070202, guid: 908e3427a87e203428312e7911a4c50c, type: 3}
      propertyPath: m_LocalRotation.z
      value: -0
      objectReference: {fileID: 0}
    m_RemovedComponents: []
  m_SourcePrefab: {fileID: 100100000, guid: 908e3427a87e203428312e7911a4c50c, type: 3}
--- !u!4 &2110691014 stripped
Transform:
  m_CorrespondingSourceObject: {fileID: 4429121422953396, guid: 0f6fbf6ba5b56aa4ba01adc51ab77ce6, type: 3}
  m_PrefabInstance: {fileID: 1475377729}
  m_PrefabAsset: {fileID: 0}
--- !u!4 &2130767442 stripped
Transform:
  m_CorrespondingSourceObject: {fileID: 4088184373543118, guid: 409010852d1134147862865a8889b834, type: 3}
  m_PrefabInstance: {fileID: 1543369651}
  m_PrefabAsset: {fileID: 0}
