%YAML 1.1
%TAG !u! tag:unity3d.com,2011:
--- !u!114 &11400000
MonoBehaviour:
  m_ObjectHideFlags: 0
  m_CorrespondingSourceObject: {fileID: 0}
  m_PrefabInstance: {fileID: 0}
  m_PrefabAsset: {fileID: 0}
  m_GameObject: {fileID: 0}
  m_Enabled: 1
  m_EditorHideFlags: 0
  m_Script: {fileID: 11500000, guid: f14741abd04bb634fb7a8d6b8be7c418, type: 3}
  m_Name: MeteorStrike
  m_EditorClassIdentifier: 
  _name: Meteor Strike
  _skillID: 2
  Icon: {fileID: 21300000, guid: 70e34c9a26e9a8a4fae1a9de7ebfee7d, type: 3}
  Description: 'Damage:10    Cooldown: 5'
