%YAML 1.1
%TAG !u! tag:unity3d.com,2011:
--- !u!114 &11400000
MonoBehaviour:
  m_ObjectHideFlags: 0
  m_CorrespondingSourceObject: {fileID: 0}
  m_PrefabInstance: {fileID: 0}
  m_PrefabAsset: {fileID: 0}
  m_GameObject: {fileID: 0}
  m_Enabled: 1
  m_EditorHideFlags: 0
  m_Script: {fileID: 11500000, guid: f14741abd04bb634fb7a8d6b8be7c418, type: 3}
  m_Name: RangeIncrease
  m_EditorClassIdentifier: 
  _name: Increase Range
  _skillID: 1
  Icon: {fileID: 21300000, guid: 9bd70ae0458d7f14987ec6f9024e9d6e, type: 3}
  Description: Attack Range + 5
