%YAML 1.1
%TAG !u! tag:unity3d.com,2011:
--- !u!1 &5238741612570112727
GameObject:
  m_ObjectHideFlags: 0
  m_CorrespondingSourceObject: {fileID: 0}
  m_PrefabInstance: {fileID: 0}
  m_PrefabAsset: {fileID: 0}
  serializedVersion: 6
  m_Component:
  - component: {fileID: 5238741612570112726}
  - component: {fileID: 5238741612570112745}
  m_Layer: 5
  m_Name: BossHPContainer
  m_TagString: Untagged
  m_Icon: {fileID: 0}
  m_NavMeshLayer: 0
  m_StaticEditorFlags: 0
  m_IsActive: 1
--- !u!224 &5238741612570112726
RectTransform:
  m_ObjectHideFlags: 0
  m_CorrespondingSourceObject: {fileID: 0}
  m_PrefabInstance: {fileID: 0}
  m_PrefabAsset: {fileID: 0}
  m_GameObject: {fileID: 5238741612570112727}
  m_LocalRotation: {x: 0, y: 0, z: 0, w: 1}
  m_LocalPosition: {x: 0, y: 0, z: 0}
  m_LocalScale: {x: 1, y: 1, z: 1}
  m_ConstrainProportionsScale: 0
  m_Children:
  - {fileID: 5238741613322685783}
  m_Father: {fileID: 0}
  m_RootOrder: 0
  m_LocalEulerAnglesHint: {x: 0, y: 0, z: 0}
  m_AnchorMin: {x: 0.5, y: 1}
  m_AnchorMax: {x: 0.5, y: 1}
  m_AnchoredPosition: {x: 0, y: -100}
  m_SizeDelta: {x: 100, y: 100}
  m_Pivot: {x: 0.5, y: 0.5}
--- !u!114 &5238741612570112745
MonoBehaviour:
  m_ObjectHideFlags: 0
  m_CorrespondingSourceObject: {fileID: 0}
  m_PrefabInstance: {fileID: 0}
  m_PrefabAsset: {fileID: 0}
  m_GameObject: {fileID: 5238741612570112727}
  m_Enabled: 1
  m_EditorHideFlags: 0
  m_Script: {fileID: 11500000, guid: 59f8146938fff824cb5fd77236b75775, type: 3}
  m_Name: 
  m_EditorClassIdentifier: 
  m_Padding:
    m_Left: 0
    m_Right: 0
    m_Top: 0
    m_Bottom: 0
  m_ChildAlignment: 1
  m_Spacing: 10
  m_ChildForceExpandWidth: 1
  m_ChildForceExpandHeight: 1
  m_ChildControlWidth: 0
  m_ChildControlHeight: 0
  m_ChildScaleWidth: 0
  m_ChildScaleHeight: 0
  m_ReverseArrangement: 0
--- !u!1001 &3833567605045584956
PrefabInstance:
  m_ObjectHideFlags: 0
  serializedVersion: 2
  m_Modification:
    m_TransformParent: {fileID: 5238741612570112726}
    m_Modifications:
    - target: {fileID: 9043279527938027432, guid: 5fdd1e1f266e1ff439ea4d89375caf8f, type: 3}
      propertyPath: m_AnchorMax.x
      value: 1
      objectReference: {fileID: 0}
    - target: {fileID: 9043279527938027432, guid: 5fdd1e1f266e1ff439ea4d89375caf8f, type: 3}
      propertyPath: m_AnchorMax.y
      value: 1
      objectReference: {fileID: 0}
    - target: {fileID: 9043279527966943592, guid: 5fdd1e1f266e1ff439ea4d89375caf8f, type: 3}
      propertyPath: m_Name
      value: BossHP
      objectReference: {fileID: 0}
    - target: {fileID: 9043279527966943592, guid: 5fdd1e1f266e1ff439ea4d89375caf8f, type: 3}
      propertyPath: m_IsActive
      value: 0
      objectReference: {fileID: 0}
    - target: {fileID: 9043279527966943595, guid: 5fdd1e1f266e1ff439ea4d89375caf8f, type: 3}
      propertyPath: m_Pivot.x
      value: 0.5
      objectReference: {fileID: 0}
    - target: {fileID: 9043279527966943595, guid: 5fdd1e1f266e1ff439ea4d89375caf8f, type: 3}
      propertyPath: m_Pivot.y
      value: 0.5
      objectReference: {fileID: 0}
    - target: {fileID: 9043279527966943595, guid: 5fdd1e1f266e1ff439ea4d89375caf8f, type: 3}
      propertyPath: m_RootOrder
      value: 0
      objectReference: {fileID: 0}
    - target: {fileID: 9043279527966943595, guid: 5fdd1e1f266e1ff439ea4d89375caf8f, type: 3}
      propertyPath: m_AnchorMax.x
      value: 0
      objectReference: {fileID: 0}
    - target: {fileID: 9043279527966943595, guid: 5fdd1e1f266e1ff439ea4d89375caf8f, type: 3}
      propertyPath: m_AnchorMax.y
      value: 1
      objectReference: {fileID: 0}
    - target: {fileID: 9043279527966943595, guid: 5fdd1e1f266e1ff439ea4d89375caf8f, type: 3}
      propertyPath: m_AnchorMin.x
      value: 0
      objectReference: {fileID: 0}
    - target: {fileID: 9043279527966943595, guid: 5fdd1e1f266e1ff439ea4d89375caf8f, type: 3}
      propertyPath: m_AnchorMin.y
      value: 1
      objectReference: {fileID: 0}
    - target: {fileID: 9043279527966943595, guid: 5fdd1e1f266e1ff439ea4d89375caf8f, type: 3}
      propertyPath: m_SizeDelta.x
      value: 662.1267
      objectReference: {fileID: 0}
    - target: {fileID: 9043279527966943595, guid: 5fdd1e1f266e1ff439ea4d89375caf8f, type: 3}
      propertyPath: m_SizeDelta.y
      value: 50
      objectReference: {fileID: 0}
    - target: {fileID: 9043279527966943595, guid: 5fdd1e1f266e1ff439ea4d89375caf8f, type: 3}
      propertyPath: m_LocalPosition.x
      value: 0
      objectReference: {fileID: 0}
    - target: {fileID: 9043279527966943595, guid: 5fdd1e1f266e1ff439ea4d89375caf8f, type: 3}
      propertyPath: m_LocalPosition.y
      value: 0
      objectReference: {fileID: 0}
    - target: {fileID: 9043279527966943595, guid: 5fdd1e1f266e1ff439ea4d89375caf8f, type: 3}
      propertyPath: m_LocalPosition.z
      value: 0
      objectReference: {fileID: 0}
    - target: {fileID: 9043279527966943595, guid: 5fdd1e1f266e1ff439ea4d89375caf8f, type: 3}
      propertyPath: m_LocalRotation.w
      value: 1
      objectReference: {fileID: 0}
    - target: {fileID: 9043279527966943595, guid: 5fdd1e1f266e1ff439ea4d89375caf8f, type: 3}
      propertyPath: m_LocalRotation.x
      value: -0
      objectReference: {fileID: 0}
    - target: {fileID: 9043279527966943595, guid: 5fdd1e1f266e1ff439ea4d89375caf8f, type: 3}
      propertyPath: m_LocalRotation.y
      value: -0
      objectReference: {fileID: 0}
    - target: {fileID: 9043279527966943595, guid: 5fdd1e1f266e1ff439ea4d89375caf8f, type: 3}
      propertyPath: m_LocalRotation.z
      value: -0
      objectReference: {fileID: 0}
    - target: {fileID: 9043279527966943595, guid: 5fdd1e1f266e1ff439ea4d89375caf8f, type: 3}
      propertyPath: m_AnchoredPosition.x
      value: 50
      objectReference: {fileID: 0}
    - target: {fileID: 9043279527966943595, guid: 5fdd1e1f266e1ff439ea4d89375caf8f, type: 3}
      propertyPath: m_AnchoredPosition.y
      value: -25
      objectReference: {fileID: 0}
    - target: {fileID: 9043279527966943595, guid: 5fdd1e1f266e1ff439ea4d89375caf8f, type: 3}
      propertyPath: m_LocalEulerAnglesHint.x
      value: 0
      objectReference: {fileID: 0}
    - target: {fileID: 9043279527966943595, guid: 5fdd1e1f266e1ff439ea4d89375caf8f, type: 3}
      propertyPath: m_LocalEulerAnglesHint.y
      value: 0
      objectReference: {fileID: 0}
    - target: {fileID: 9043279527966943595, guid: 5fdd1e1f266e1ff439ea4d89375caf8f, type: 3}
      propertyPath: m_LocalEulerAnglesHint.z
      value: 0
      objectReference: {fileID: 0}
    m_RemovedComponents: []
  m_SourcePrefab: {fileID: 100100000, guid: 5fdd1e1f266e1ff439ea4d89375caf8f, type: 3}
--- !u!224 &5238741613322685783 stripped
RectTransform:
  m_CorrespondingSourceObject: {fileID: 9043279527966943595, guid: 5fdd1e1f266e1ff439ea4d89375caf8f, type: 3}
  m_PrefabInstance: {fileID: 3833567605045584956}
  m_PrefabAsset: {fileID: 0}
